<?xml version="1.0" encoding="utf-8"?>
<!-- Generator: Adobe Illustrator 15.1.0, SVG Export Plug-In . SVG Version: 6.00 Build 0)  -->
<!DOCTYPE svg PUBLIC "-//W3C//DTD SVG 1.1//EN" "http://www.w3.org/Graphics/SVG/1.1/DTD/svg11.dtd">
<svg version="1.1" id="Layer_1" xmlns="http://www.w3.org/2000/svg" xmlns:xlink="http://www.w3.org/1999/xlink" x="0px" y="0px"
	 width="275.217px" height="300.861px" viewBox="0 0 275.217 300.861" enable-background="new 0 0 275.217 300.861"
	 xml:space="preserve">
<g>
	<defs>
		<path id="SVGID_1_" d="M113.793,77.613V53.511c0-7.973,4.288-15.502,11.085-19.658l1.333-0.81
			c7.189-4.366,16.156-4.445,23.396-0.261l0.287,0.155c7.138,4.105,11.528,11.738,11.528,19.947v24.729l27.345,15.79l21.409-12.391
			c7.138-4.078,15.946-4.078,23.031,0l0.784,0.497c7.109,4.103,11.502,11.737,11.502,19.919c0,8.078-4.314,15.659-11.268,19.789
			l-22.351,13.203l0.184,31.5l21.933,12.652c7.109,4.078,11.502,11.737,11.502,19.893v0.969c0,8.154-4.393,15.814-11.502,19.919
			l-0.784,0.47c-7.085,4.078-15.894,4.078-23.031,0l-21.409-12.39l-27.345,15.815v24.103c0,7.973-4.233,15.527-11.058,19.658
			l-1.333,0.81c-7.188,4.339-16.155,4.445-23.423,0.261l-0.287-0.182c-7.084-4.078-11.529-11.737-11.529-19.92v-24.729
			L86.45,207.432l-21.41,12.39c-7.084,4.078-15.92,4.078-22.978,0l-0.811-0.496c-7.11-4.078-11.528-11.738-11.528-19.893
			c0-8.105,4.313-15.659,11.294-19.815l22.324-13.202l-0.183-31.5l-21.907-12.652c-7.11-4.079-11.528-11.711-11.528-19.893v-0.942
			c0-8.182,4.418-15.816,11.528-19.919l0.784-0.497c7.085-4.078,15.921-4.078,23.005,0l21.41,12.391L113.793,77.613z M138.157,0
			c-9.645,0-19.109,2.64-27.343,7.607l-1.334,0.81C95.704,16.782,86.345,31.343,84.463,47.42l-1.098,9.098l-8.339-3.712
			c-6.797-3.033-14.012-4.575-21.515-4.575c-9.253,0-18.351,2.457-26.324,7.059l-0.836,0.469C10.091,65.144,0,82.659,0,101.428
			v0.942c0,17.043,8.339,33.147,22.272,43.029l7.738,5.489l-7.738,5.489C8.339,166.286,0,182.362,0,199.433
			c0,18.769,10.091,36.257,26.403,45.668l0.758,0.471c7.974,4.601,17.124,7.032,26.376,7.032c7.451,0,14.666-1.543,21.437-4.523
			l8.443-3.737l0.968,9.201c1.777,16.704,11.529,31.685,26.01,40.076l0.34,0.183c8,4.627,17.123,7.057,26.376,7.057
			c9.646,0,19.084-2.639,27.345-7.659l1.307-0.784c13.804-8.338,23.136-22.926,25.017-39.003l1.072-9.096l8.366,3.738
			c6.77,3.005,13.985,4.548,21.487,4.548c9.255,0,18.378-2.457,26.429-7.084l0.732-0.445c16.26-9.385,26.35-26.873,26.35-45.642
			v-0.969c0-17.018-8.312-33.121-22.246-43.028l-7.763-5.49l7.763-5.489c13.935-9.882,22.246-25.984,22.246-43.029
			c0-18.795-10.09-36.284-26.479-45.721l-0.681-0.417c-7.973-4.602-17.096-7.059-26.351-7.059c-7.477,0-14.665,1.542-21.409,4.523
			l-8.444,3.764l-0.993-9.202c-1.777-16.73-11.528-31.71-26.142-40.154l-0.234-0.104C156.483,2.405,147.386,0,138.157,0z"/>
	</defs>
	<clipPath id="SVGID_2_">
		<use xlink:href="#SVGID_1_"  overflow="visible"/>
	</clipPath>
	
		<linearGradient id="SVGID_3_" gradientUnits="userSpaceOnUse" x1="0" y1="300.8608" x2="1" y2="300.8608" gradientTransform="matrix(-150.7744 -178.5169 -178.5169 150.7744 53915.5586 -45129.7266)">
		<stop  offset="0" style="stop-color:#7EC2B1"/>
		<stop  offset="1" style="stop-color:#DFE67D"/>
	</linearGradient>
	<polygon clip-path="url(#SVGID_2_)" fill="url(#SVGID_3_)" points="114.584,436.528 -148.31,125.261 160.631,-135.668 
		423.525,175.598 	"/>
</g>
<g>
	<defs>
		<polygon id="SVGID_4_" points="93.116,114.018 137.608,139.677 182.101,114.018 137.608,88.324 		"/>
	</defs>
	<clipPath id="SVGID_5_">
		<use xlink:href="#SVGID_4_"  overflow="visible"/>
	</clipPath>
	
		<linearGradient id="SVGID_6_" gradientUnits="userSpaceOnUse" x1="0" y1="300.8608" x2="1" y2="300.8608" gradientTransform="matrix(-150.7744 -178.5169 -178.5169 150.7744 53933.5586 -45144.8828)">
		<stop  offset="0" style="stop-color:#7EC2B1"/>
		<stop  offset="1" style="stop-color:#DFE67D"/>
	</linearGradient>
	<polygon clip-path="url(#SVGID_5_)" fill="url(#SVGID_6_)" points="130.165,183.542 67.801,109.705 145.053,44.458 
		207.416,118.296 	"/>
</g>
<g>
	<defs>
		<polygon id="SVGID_7_" points="83.846,181.426 128.339,207.121 128.339,155.731 83.846,130.073 		"/>
	</defs>
	<clipPath id="SVGID_8_">
		<use xlink:href="#SVGID_7_"  overflow="visible"/>
	</clipPath>
	
		<linearGradient id="SVGID_9_" gradientUnits="userSpaceOnUse" x1="0" y1="300.8608" x2="1" y2="300.8608" gradientTransform="matrix(-150.7744 -178.5169 -178.5169 150.7744 53888.3086 -45106.6328)">
		<stop  offset="0" style="stop-color:#7EC2B1"/>
		<stop  offset="1" style="stop-color:#DFE67D"/>
	</linearGradient>
	<polygon clip-path="url(#SVGID_8_)" fill="url(#SVGID_9_)" points="102.371,229.054 45.865,162.152 109.814,108.14 166.32,175.042 
			"/>
</g>
<g>
	<defs>
		<polygon id="SVGID_10_" points="146.878,155.731 146.878,207.121 191.371,181.426 191.371,130.073 		"/>
	</defs>
	<clipPath id="SVGID_11_">
		<use xlink:href="#SVGID_10_"  overflow="visible"/>
	</clipPath>
	
		<linearGradient id="SVGID_12_" gradientUnits="userSpaceOnUse" x1="0" y1="300.8608" x2="1" y2="300.8608" gradientTransform="matrix(-150.7744 -178.5169 -178.5169 150.7744 53925.0586 -45137.6953)">
		<stop  offset="0" style="stop-color:#7EC2B1"/>
		<stop  offset="1" style="stop-color:#DFE67D"/>
	</linearGradient>
	<polygon clip-path="url(#SVGID_11_)" fill="url(#SVGID_12_)" points="165.402,229.054 108.897,162.152 172.847,108.14 
		229.352,175.042 	"/>
</g>
</svg>
