<?xml version="1.0" encoding="utf-8"?>
<!-- Generator: Adobe Illustrator 15.1.0, SVG Export Plug-In . SVG Version: 6.00 Build 0)  -->
<!DOCTYPE svg PUBLIC "-//W3C//DTD SVG 1.1//EN" "http://www.w3.org/Graphics/SVG/1.1/DTD/svg11.dtd">
<svg version="1.1" id="Layer_1" xmlns="http://www.w3.org/2000/svg" xmlns:xlink="http://www.w3.org/1999/xlink" x="0px" y="0px"
	 width="446.313px" height="92.515px" viewBox="0 0 446.313 92.515" enable-background="new 0 0 446.313 92.515"
	 xml:space="preserve">
<g>
	<defs>
		<rect id="SVGID_1_" y="0" width="446.313" height="92.515"/>
	</defs>
	<clipPath id="SVGID_2_">
		<use xlink:href="#SVGID_1_"  overflow="visible"/>
	</clipPath>
	<path clip-path="url(#SVGID_2_)" fill="#FFFFFF" d="M37.797,24.781c-3.587,0-7.015,0.606-10.234,1.767V42.03
		c2.274-1.161,4.829-1.793,7.516-1.793c9.708,0,17.567,8.256,17.567,18.438c0,10.181-7.859,18.437-17.567,18.437
		c-2.689,0-5.247-0.633-7.516-1.794c-5.935-2.954-10.022-9.284-10.022-16.643V32.299V4.841c0-1.866-1.513-3.376-3.377-3.376H3.352
		C1.5,1.465,0,2.964,0,4.814v83.085c0,1.85,1.501,3.35,3.352,3.35h10.813c1.857,0,3.377-1.52,3.377-3.376v-2.875
		c2.954,2.505,6.328,4.483,10.022,5.75c3.217,1.16,6.648,1.766,10.234,1.766c17.829,0,32.311-15.165,32.311-33.865
		C70.108,39.947,55.626,24.781,37.797,24.781"/>
	<path clip-path="url(#SVGID_2_)" fill="#FFFFFF" d="M92.483,0c-2.769,0-5.117,0.923-7.042,2.796
		c-1.952,1.847-2.929,4.088-2.929,6.673c0,2.717,0.977,4.985,2.929,6.858c1.925,1.872,4.273,2.743,7.042,2.743
		c2.718,0,4.984-0.871,6.884-2.743c1.9-1.873,2.849-4.141,2.849-6.858c0-2.585-0.949-4.826-2.849-6.673
		C97.467,0.923,95.201,0,92.483,0"/>
	<path clip-path="url(#SVGID_2_)" fill="#FFFFFF" d="M97.838,26.086H87.183c-1.136,0-2.005,0.343-2.638,0.976
		c-0.607,0.607-0.95,1.503-0.95,2.585V87.7c0,1.081,0.343,1.979,0.95,2.585c0.633,0.659,1.502,0.976,2.638,0.976h10.656
		c1.081,0,1.979-0.316,2.584-0.976c0.659-0.606,0.976-1.504,0.976-2.585V29.647c0-1.082-0.317-1.978-0.976-2.585
		C99.817,26.429,98.919,26.086,97.838,26.086"/>
	<path clip-path="url(#SVGID_2_)" fill="#FFFFFF" d="M148.401,24.925h-9.522V11.026c0-1.109-0.291-1.953-0.922-2.612
		c-0.66-0.633-1.505-0.923-2.613-0.923H124.9c-1.082,0-1.978,0.29-2.638,0.923c-0.608,0.659-0.923,1.503-0.923,2.612v13.899h-4.377
		c-1.137,0-1.979,0.317-2.638,0.924c-0.609,0.659-0.925,1.503-0.925,2.638v8.414c0,1.107,0.316,1.951,0.925,2.611
		c0.659,0.633,1.501,0.923,2.638,0.923h4.377v35.133c0,4.509,0.897,7.913,2.584,10.207c1.742,2.269,4.142,3.904,7.148,4.748
		c2.98,0.843,7.174,1.293,12.476,1.293c1.952,0,3.43-0.027,4.483-0.106c1.109-0.079,1.953-0.448,2.56-1.135
		c0.581-0.658,0.897-1.556,0.897-2.637v-7.861c0-2.267-1.268-3.454-3.693-3.454h-0.844c-3.244,0-5.381-0.817-6.436-2.427
		c-1.056-1.608-1.635-4.062-1.635-7.306V40.435h9.522c1.107,0,1.951-0.29,2.61-0.923c0.633-0.66,0.924-1.504,0.924-2.611v-8.414
		c0-1.135-0.291-1.979-0.924-2.638C150.352,25.242,149.508,24.925,148.401,24.925"/>
	<path clip-path="url(#SVGID_2_)" fill="#FFFFFF" d="M300.696,26.218h-53.967c-1.135,0-2.005,0.316-2.638,0.976
		c-0.659,0.607-0.949,1.503-0.949,2.585v8.176c0,1.108,0.29,2.005,0.949,2.612c0.633,0.632,1.503,0.975,2.638,0.975h27.01
		l-32.362,45.42c-0.581,0.817-0.845,1.528-0.845,2.269c0,0.606,0.236,1.133,0.712,1.45c0.501,0.369,1.108,0.58,1.898,0.58h54.811
		c1.134,0,1.977-0.316,2.637-0.977c0.421-0.447,0.765-1.054,0.871-1.819c0.052-0.237,0.052-0.501,0.052-0.766v-8.308
		c0-1.134-0.315-2.005-0.923-2.638c-0.66-0.606-1.503-0.949-2.637-0.949h-28.327l32.494-45.288c0.395-0.607,0.659-1.187,0.765-1.74
		c0.053-0.185,0.053-0.37,0.053-0.528c0-0.66-0.212-1.135-0.58-1.504C301.962,26.429,301.383,26.218,300.696,26.218"/>
	<path clip-path="url(#SVGID_2_)" fill="#FFFFFF" d="M368.324,26.218h-54.021c-1.08,0-1.923,0.316-2.583,0.976
		c-0.475,0.448-0.765,1.055-0.896,1.82c-0.027,0.237-0.027,0.475-0.027,0.765v8.176c0,1.108,0.264,2.005,0.923,2.612
		c0.66,0.632,1.503,0.975,2.583,0.975h27.09l-32.39,45.42c-0.449,0.606-0.686,1.16-0.817,1.688
		c-0.026,0.211-0.026,0.422-0.026,0.581c0,0.606,0.236,1.133,0.713,1.45c0.447,0.369,1.106,0.58,1.925,0.58h54.783
		c1.082,0,1.978-0.316,2.638-0.977c0.606-0.605,0.921-1.504,0.921-2.585v-8.308c0-1.134-0.314-2.005-0.921-2.638
		c-0.66-0.606-1.556-0.949-2.638-0.949h-28.38l32.548-45.288c0.526-0.818,0.815-1.582,0.815-2.268c0-0.66-0.211-1.135-0.58-1.504
		C369.589,26.429,369.035,26.218,368.324,26.218"/>
	<path clip-path="url(#SVGID_2_)" fill="#FFFFFF" d="M227.347,26.02h-10.814c-1.856,0-3.376,1.52-3.376,3.377v2.875
		c-2.955-2.506-6.33-4.484-10.024-5.75c-3.217-1.161-6.646-1.768-10.233-1.768c-17.829,0-32.311,15.166-32.311,33.868
		c0,18.7,14.482,33.866,32.311,33.866c3.587,0,7.017-0.606,10.233-1.768V75.237c-2.265,1.16-4.825,1.794-7.515,1.794
		c-9.708,0-17.568-8.256-17.568-18.437c0-10.182,7.86-18.438,17.568-18.438c2.69,0,5.248,0.633,7.515,1.794
		c5.935,2.954,10.024,9.284,10.024,16.643v26.376v2.954c0,1.864,1.51,3.376,3.376,3.376h10.814c1.85,0,3.35-1.5,3.35-3.35V29.371
		C230.696,27.52,229.196,26.02,227.347,26.02"/>
	<path clip-path="url(#SVGID_2_)" fill="#FFFFFF" d="M442.963,26.02h-10.813c-1.856,0-3.377,1.52-3.377,3.377v2.875
		c-2.955-2.506-6.329-4.484-10.023-5.75c-3.217-1.161-6.646-1.768-10.232-1.768c-17.829,0-32.312,15.166-32.312,33.868
		c0,18.7,14.482,33.866,32.312,33.866c3.587,0,7.017-0.606,10.232-1.768V75.237c-2.265,1.16-4.824,1.794-7.516,1.794
		c-9.708,0-17.567-8.256-17.567-18.437c0-10.182,7.859-18.438,17.567-18.438c2.69,0,5.249,0.633,7.516,1.794
		c5.936,2.954,10.023,9.284,10.023,16.643v26.376v2.954c0,1.864,1.512,3.376,3.377,3.376h10.813c1.851,0,3.351-1.5,3.351-3.35
		V29.371C446.313,27.52,444.813,26.02,442.963,26.02"/>
</g>
</svg>
