<svg xmlns="http://www.w3.org/2000/svg" width="16" height="16" viewBox="0 0 16 16">
    <path fill="currentColor" fill-rule="evenodd" d="M5.5 4.453l2.5 2.5 2.5-2.5L11.547 5.5 9.047 8l2.5 2.5-1.047 1.047-2.5-2.5-2.5 2.5L4.453 10.5l2.5-2.5-2.5-2.5L5.5 4.453zM8 0a8 8 0 0 0-8 8 8 8 0 0 0 8 8 8 8 0 0 0 8-8 8 8 0 0 0-8-8z"/>
</svg>
