<?xml version="1.0" encoding="utf-8"?>
<!-- Generator: Adobe Illustrator 24.0.1, SVG Export Plug-In . SVG Version: 6.00 Build 0)  -->
<svg version="1.1" id="Layer_1" xmlns="http://www.w3.org/2000/svg" xmlns:xlink="http://www.w3.org/1999/xlink" x="0px" y="0px"
	 viewBox="0 0 48 48" style="enable-background:new 0 0 48 48;" xml:space="preserve">
<style type="text/css">
	.st0{fill:#FFFFFF;}
	.st1{fill:#00D395;}
</style>
<g>
	<circle class="st0" cx="24" cy="24" r="24"/>
	<path class="st1" d="M13.3,32.5C12.5,32,12,31.2,12,30.3v-5c0-0.2,0-0.4,0.1-0.5c0.3-0.5,1-0.7,1.5-0.4L24.9,31
		c0.7,0.4,1.1,1.1,1.1,1.9V38c0,0.2-0.1,0.5-0.2,0.7c-0.4,0.6-1.2,0.8-1.8,0.4L13.3,32.5z M30,23.1c0.7,0.4,1.1,1.1,1.1,1.9v10.5
		c0,0.3-0.2,0.6-0.4,0.8l-2.4,1.4c0,0-0.1,0-0.1,0v-5.8c0-0.8-0.4-1.4-1-1.8l-9.8-5.9v-6.6c0-0.2,0-0.4,0.1-0.5
		c0.3-0.5,1-0.7,1.5-0.4L30,23.1z M34.9,15.3c0.7,0.4,1.1,1.1,1.1,1.9v15.3c0,0.3-0.2,0.6-0.5,0.8l-2.3,1.3V23.9
		c0-0.8-0.4-1.4-1-1.8l-10.1-6V9.8c0-0.2,0-0.4,0.1-0.5c0.3-0.5,1-0.7,1.5-0.4L34.9,15.3z"/>
</g>
</svg>
