<?xml version="1.0" encoding="UTF-8"?>
<svg width="26px" height="26px" viewBox="0 0 26 26" version="1.1" xmlns="http://www.w3.org/2000/svg" xmlns:xlink="http://www.w3.org/1999/xlink">
    <!-- Generator: sketchtool 53.1 (72631) - https://sketchapp.com -->
    <title>ABAF10A4-9304-4052-9342-6A99148C062E</title>
    <desc>Created with sketchtool.</desc>
    <g id="Web" stroke="none" stroke-width="1" fill="none" fill-rule="evenodd">
        <g id="Bitazza---Home" transform="translate(-1202.000000, -2134.000000)" fill="#868686">
            <g id="Group-37" transform="translate(0.000000, 1981.000000)">
                <g id="social" transform="translate(1118.000000, 153.000000)">
                    <g id="ic-twitter" transform="translate(84.000000, 0.000000)">
                        <path d="M0,13 C0,5.8202979 5.8202979,0 13,0 C20.1797021,0 26,5.8202979 26,13 C26,20.1797021 20.1797021,26 13,26 C5.8202979,26 0,20.1797021 0,13 Z M12.6106514,10.5665628 L12.6379311,11.0163922 L12.1832696,10.961311 C10.5283015,10.7501666 9.08247768,10.0341118 7.85489146,8.83150686 L7.2547382,8.23479448 L7.10015326,8.67544362 C6.77279694,9.65772399 6.98194126,10.6950855 7.6639336,11.39278 C8.02766286,11.778348 7.94582377,11.8334291 7.31839082,11.6039244 C7.10015326,11.5304828 6.90919541,11.4754017 6.89100895,11.5029423 C6.82735633,11.5672036 7.04559388,12.4026009 7.21836527,12.7330878 C7.45478928,13.1920973 7.93673054,13.6419266 8.46413796,13.9081521 L8.90970629,14.1192965 L8.38229888,14.1284767 C7.87307792,14.1284767 7.85489146,14.1376569 7.90945085,14.3304409 C8.09131547,14.9271533 8.80968075,15.5605864 9.6098851,15.8359921 L10.1736654,16.0287761 L9.68263095,16.3225422 C8.95517245,16.744831 8.10040871,16.9835159 7.24564497,17.0018763 C6.83644956,17.0110565 6.5,17.0477772 6.5,17.0753178 C6.5,17.1671197 7.60937422,17.6812104 8.25499364,17.8831746 C10.1918519,18.4798869 12.4924394,18.2228416 14.2201534,17.2038405 C15.4477396,16.4786054 16.6753258,15.0373156 17.2481994,13.6419266 C17.5573692,12.8983312 17.8665391,11.539663 17.8665391,10.8878695 C17.8665391,10.4655807 17.8938188,10.4104996 18.4030397,9.90558913 C18.7031164,9.61182304 18.9850065,9.29051638 19.0395659,9.19871447 C19.1304982,9.02429086 19.121405,9.02429086 18.6576502,9.18035409 C17.8847256,9.4557598 17.7756068,9.41903904 18.1575225,9.00593047 C18.4394127,8.71216438 18.7758622,8.17971334 18.7758622,8.0236501 C18.7758622,7.99610953 18.6394638,8.04201049 18.4848788,8.1246322 C18.3212007,8.2164341 17.9574714,8.35413696 17.6846745,8.43675867 L17.19364,8.59282191 L16.7480717,8.28987563 C16.5025544,8.1246322 16.1570116,7.94102839 15.975147,7.88594725 C15.5113922,7.75742458 14.8021202,7.77578496 14.3838315,7.92266801 C13.2471776,8.33577658 12.5288123,9.40067866 12.6106514,10.5665628 Z" id="Combined-Shape"></path>
                    </g>
                </g>
            </g>
        </g>
    </g>
</svg>