<svg xmlns="http://www.w3.org/2000/svg" xmlns:xlink="http://www.w3.org/1999/xlink" width="196" height="296" viewBox="0 0 196 296">
    <defs>
        <radialGradient id="b" cx="0%" cy="0%" r="181.127%" fx="0%" fy="0%" gradientTransform="scale(1 .66216) rotate(56.489)">
            <stop offset="0%"/>
            <stop offset="50.113%" stop-color="#252525"/>
            <stop offset="100%"/>
        </radialGradient>
        <rect id="a" width="196" height="296" rx="3"/>
        <linearGradient id="d" x1="50%" x2="50%" y1="0%" y2="100%">
            <stop offset="0%" stop-opacity="0"/>
            <stop offset="52.69%" stop-color="#00CF77"/>
            <stop offset="100%" stop-opacity="0"/>
        </linearGradient>
        <linearGradient id="e" x1="50%" x2="50%" y1="0%" y2="100%">
            <stop offset="0%" stop-opacity="0"/>
            <stop offset="52.69%" stop-color="#00CF77"/>
            <stop offset="100%" stop-opacity="0"/>
        </linearGradient>
        <linearGradient id="f" x1="50%" x2="50%" y1="0%" y2="100%">
            <stop offset="0%" stop-opacity="0"/>
            <stop offset="52.69%" stop-color="#00CF77"/>
            <stop offset="100%" stop-opacity="0"/>
        </linearGradient>
        <radialGradient id="g" cy="89.305%" r="40.825%" fx="50%" fy="89.305%" gradientTransform="matrix(1 0 0 .5147 0 .433)">
            <stop offset="0%" stop-color="#00B55B"/>
            <stop offset="100%" stop-color="#00CF77"/>
        </radialGradient>
        <linearGradient id="h" x1="99.922%" x2="56.153%" y1="49.989%" y2="49.989%">
            <stop offset="0%" stop-color="#006130"/>
            <stop offset="100%" stop-color="#D6CAA0" stop-opacity=".7"/>
        </linearGradient>
        <linearGradient id="i" x1="99.922%" x2="56.153%" y1="49.989%" y2="49.989%">
            <stop offset="0%" stop-color="#006130"/>
            <stop offset="100%" stop-color="#D6CAA0" stop-opacity=".7"/>
        </linearGradient>
        <linearGradient id="j" x1="99.922%" x2="56.153%" y1="49.989%" y2="49.989%">
            <stop offset="0%" stop-color="#006130"/>
            <stop offset="100%" stop-color="#D6CAA0" stop-opacity=".7"/>
        </linearGradient>
        <linearGradient id="k" x1="99.922%" x2="56.153%" y1="49.989%" y2="49.989%">
            <stop offset="0%" stop-color="#006130"/>
            <stop offset="100%" stop-color="#D6CAA0" stop-opacity=".7"/>
        </linearGradient>
        <linearGradient id="l" x1="99.922%" x2="56.153%" y1="49.989%" y2="49.989%">
            <stop offset="0%" stop-color="#006130"/>
            <stop offset="100%" stop-color="#D6CAA0" stop-opacity=".7"/>
        </linearGradient>
        <linearGradient id="m" x1="99.922%" x2="56.153%" y1="49.989%" y2="49.989%">
            <stop offset="0%" stop-color="#006130"/>
            <stop offset="100%" stop-color="#D6CAA0" stop-opacity=".7"/>
        </linearGradient>
        <linearGradient id="n" x1="99.922%" x2="56.153%" y1="49.989%" y2="49.989%">
            <stop offset="0%" stop-color="#006130"/>
            <stop offset="100%" stop-color="#D6CAA0" stop-opacity=".7"/>
        </linearGradient>
        <linearGradient id="o" x1="99.922%" x2="56.153%" y1="49.989%" y2="49.989%">
            <stop offset="0%" stop-color="#006130"/>
            <stop offset="100%" stop-color="#D6CAA0" stop-opacity=".7"/>
        </linearGradient>
        <linearGradient id="p" x1="99.922%" x2="56.153%" y1="49.989%" y2="49.989%">
            <stop offset="0%" stop-color="#006130"/>
            <stop offset="100%" stop-color="#D6CAA0" stop-opacity=".7"/>
        </linearGradient>
        <linearGradient id="q" x1="99.922%" x2="56.153%" y1="49.989%" y2="49.989%">
            <stop offset="0%" stop-color="#006130"/>
            <stop offset="100%" stop-color="#D6CAA0" stop-opacity=".7"/>
        </linearGradient>
        <linearGradient id="r" x1="99.922%" x2="56.153%" y1="49.989%" y2="49.989%">
            <stop offset="0%" stop-color="#006130"/>
            <stop offset="100%" stop-color="#D6CAA0" stop-opacity=".7"/>
        </linearGradient>
        <linearGradient id="s" x1="99.922%" x2="56.153%" y1="49.989%" y2="49.989%">
            <stop offset="0%" stop-color="#006130"/>
            <stop offset="100%" stop-color="#D6CAA0" stop-opacity=".7"/>
        </linearGradient>
        <linearGradient id="t" x1="99.922%" x2="56.153%" y1="49.989%" y2="49.989%">
            <stop offset="0%" stop-color="#006130"/>
            <stop offset="100%" stop-color="#D6CAA0" stop-opacity=".7"/>
        </linearGradient>
        <linearGradient id="u" x1="99.922%" x2="56.153%" y1="49.989%" y2="49.989%">
            <stop offset="0%" stop-color="#006130"/>
            <stop offset="100%" stop-color="#D6CAA0" stop-opacity=".7"/>
        </linearGradient>
        <linearGradient id="v" x1="99.922%" x2="56.153%" y1="49.989%" y2="49.989%">
            <stop offset="0%" stop-color="#006130"/>
            <stop offset="100%" stop-color="#D6CAA0" stop-opacity=".7"/>
        </linearGradient>
        <linearGradient id="w" x1="99.922%" x2="56.153%" y1="49.989%" y2="49.989%">
            <stop offset="0%" stop-color="#006130"/>
            <stop offset="100%" stop-color="#D6CAA0" stop-opacity=".7"/>
        </linearGradient>
        <linearGradient id="x" x1="99.922%" x2="56.153%" y1="49.989%" y2="49.989%">
            <stop offset="0%" stop-color="#006130"/>
            <stop offset="100%" stop-color="#D6CAA0" stop-opacity=".7"/>
        </linearGradient>
        <linearGradient id="y" x1="99.922%" x2="56.153%" y1="49.989%" y2="49.989%">
            <stop offset="0%" stop-color="#006130"/>
            <stop offset="100%" stop-color="#D6CAA0" stop-opacity=".7"/>
        </linearGradient>
        <linearGradient id="z" x1="99.922%" x2="56.153%" y1="49.989%" y2="49.989%">
            <stop offset="0%" stop-color="#006130"/>
            <stop offset="100%" stop-color="#D6CAA0" stop-opacity=".7"/>
        </linearGradient>
        <linearGradient id="A" x1="99.922%" x2="56.153%" y1="49.989%" y2="49.989%">
            <stop offset="0%" stop-color="#006130"/>
            <stop offset="100%" stop-color="#D6CAA0" stop-opacity=".7"/>
        </linearGradient>
        <linearGradient id="B" x1="99.922%" x2="56.153%" y1="49.989%" y2="49.989%">
            <stop offset="0%" stop-color="#006130"/>
            <stop offset="100%" stop-color="#D6CAA0" stop-opacity=".7"/>
        </linearGradient>
        <linearGradient id="C" x1="99.922%" x2="56.153%" y1="49.989%" y2="49.989%">
            <stop offset="0%" stop-color="#006130"/>
            <stop offset="100%" stop-color="#D6CAA0" stop-opacity=".7"/>
        </linearGradient>
        <linearGradient id="D" x1="99.922%" x2="56.153%" y1="49.989%" y2="49.989%">
            <stop offset="0%" stop-color="#006130"/>
            <stop offset="100%" stop-color="#D6CAA0" stop-opacity=".7"/>
        </linearGradient>
        <linearGradient id="E" x1="99.922%" x2="56.153%" y1="49.989%" y2="49.989%">
            <stop offset="0%" stop-color="#006130"/>
            <stop offset="100%" stop-color="#D6CAA0" stop-opacity=".7"/>
        </linearGradient>
        <linearGradient id="F" x1="99.922%" x2="56.153%" y1="49.989%" y2="49.989%">
            <stop offset="0%" stop-color="#006130"/>
            <stop offset="100%" stop-color="#D6CAA0" stop-opacity=".7"/>
        </linearGradient>
        <linearGradient id="G" x1="99.922%" x2="56.153%" y1="49.989%" y2="49.989%">
            <stop offset="0%" stop-color="#006130"/>
            <stop offset="100%" stop-color="#D6CAA0" stop-opacity=".7"/>
        </linearGradient>
        <linearGradient id="H" x1="99.922%" x2="56.153%" y1="49.989%" y2="49.989%">
            <stop offset="0%" stop-color="#006130"/>
            <stop offset="100%" stop-color="#D6CAA0" stop-opacity=".7"/>
        </linearGradient>
        <linearGradient id="I" x1="99.922%" x2="56.153%" y1="49.989%" y2="49.989%">
            <stop offset="0%" stop-color="#006130"/>
            <stop offset="100%" stop-color="#D6CAA0" stop-opacity=".7"/>
        </linearGradient>
        <linearGradient id="J" x1="99.922%" x2="56.153%" y1="49.989%" y2="49.989%">
            <stop offset="0%" stop-color="#006130"/>
            <stop offset="100%" stop-color="#D6CAA0" stop-opacity=".7"/>
        </linearGradient>
        <linearGradient id="K" x1="99.922%" x2="56.153%" y1="49.989%" y2="49.989%">
            <stop offset="0%" stop-color="#006130"/>
            <stop offset="100%" stop-color="#D6CAA0" stop-opacity=".7"/>
        </linearGradient>
        <linearGradient id="L" x1="99.922%" x2="56.153%" y1="49.989%" y2="49.989%">
            <stop offset="0%" stop-color="#006130"/>
            <stop offset="100%" stop-color="#D6CAA0" stop-opacity=".7"/>
        </linearGradient>
        <linearGradient id="M" x1="66.138%" x2="34.12%" y1="-7.739%" y2="106.834%">
            <stop offset="1%" stop-color="#D1D1D1"/>
            <stop offset="16%" stop-color="#FFF"/>
            <stop offset="19%" stop-color="#EEE"/>
            <stop offset="24%" stop-color="#C1C1C1"/>
            <stop offset="30%" stop-color="#8A8A8A"/>
            <stop offset="59%" stop-color="#8A8A8A"/>
            <stop offset="69%" stop-color="#E6E6E6"/>
            <stop offset="71%" stop-color="#FFF"/>
            <stop offset="73%" stop-color="#FFF"/>
            <stop offset="88%" stop-color="#8A8A8A"/>
        </linearGradient>
        <linearGradient id="N" x1="97.746%" x2="-10.973%" y1="-13.062%" y2="130.572%">
            <stop offset="1%" stop-color="#FCFCFC"/>
            <stop offset="18%" stop-color="#8A8A8A"/>
            <stop offset="42%" stop-color="#F2F2F2"/>
            <stop offset="71%" stop-color="#8A8A8A"/>
            <stop offset="100%" stop-color="#8A8A8A"/>
        </linearGradient>
        <linearGradient id="O" x1="24.212%" x2="119.999%" y1="-8.504%" y2="208.912%">
            <stop offset="1%" stop-color="#D9D9D9"/>
            <stop offset="29%" stop-color="#FFF"/>
            <stop offset="46%" stop-color="#EEE"/>
            <stop offset="69%" stop-color="#CFCFCF"/>
        </linearGradient>
        <linearGradient id="P" x1="5.907%" x2="-28.115%" y1="-16.514%" y2="235.36%">
            <stop offset="1%" stop-color="#D9D9D9"/>
            <stop offset="29%" stop-color="#FFF"/>
            <stop offset="46%" stop-color="#EEE"/>
            <stop offset="69%" stop-color="#CFCFCF"/>
        </linearGradient>
        <linearGradient id="Q" x1="1.52%" x2="-36.096%" y1="-23.507%" y2="254.868%">
            <stop offset="1%" stop-color="#D9D9D9"/>
            <stop offset="29%" stop-color="#FFF"/>
            <stop offset="46%" stop-color="#EEE"/>
            <stop offset="69%" stop-color="#CFCFCF"/>
        </linearGradient>
        <linearGradient id="R" x1="-1.195%" x2="-41.003%" y1="-27.814%" y2="266.672%">
            <stop offset="1%" stop-color="#D9D9D9"/>
            <stop offset="29%" stop-color="#FFF"/>
            <stop offset="46%" stop-color="#EEE"/>
            <stop offset="69%" stop-color="#CFCFCF"/>
        </linearGradient>
        <linearGradient id="S" x1="-3.957%" x2="-45.956%" y1="-32.081%" y2="278.965%">
            <stop offset="1%" stop-color="#D9D9D9"/>
            <stop offset="29%" stop-color="#FFF"/>
            <stop offset="46%" stop-color="#EEE"/>
            <stop offset="69%" stop-color="#CFCFCF"/>
        </linearGradient>
        <linearGradient id="T" x1="-7.307%" x2="-51.956%" y1="-37.248%" y2="293.332%">
            <stop offset="1%" stop-color="#D9D9D9"/>
            <stop offset="29%" stop-color="#FFF"/>
            <stop offset="46%" stop-color="#EEE"/>
            <stop offset="69%" stop-color="#CFCFCF"/>
        </linearGradient>
        <linearGradient id="U" x1="-11.166%" x2="-58.8%" y1="-43.119%" y2="309.47%">
            <stop offset="1%" stop-color="#D9D9D9"/>
            <stop offset="29%" stop-color="#FFF"/>
            <stop offset="46%" stop-color="#EEE"/>
            <stop offset="69%" stop-color="#CFCFCF"/>
        </linearGradient>
        <linearGradient id="V" x1="-15.42%" x2="-66.46%" y1="-49.714%" y2="328.092%">
            <stop offset="1%" stop-color="#D9D9D9"/>
            <stop offset="29%" stop-color="#FFF"/>
            <stop offset="46%" stop-color="#EEE"/>
            <stop offset="69%" stop-color="#CFCFCF"/>
        </linearGradient>
        <linearGradient id="W" x1="64.953%" x2="9.934%" y1="-60.281%" y2="346.71%">
            <stop offset="1%" stop-color="#D9D9D9"/>
            <stop offset="29%" stop-color="#FFF"/>
            <stop offset="46%" stop-color="#EEE"/>
            <stop offset="69%" stop-color="#CFCFCF"/>
        </linearGradient>
        <linearGradient id="X" x1="66.168%" x2="6.631%" y1="-69.384%" y2="371.249%">
            <stop offset="1%" stop-color="#D9D9D9"/>
            <stop offset="29%" stop-color="#FFF"/>
            <stop offset="46%" stop-color="#EEE"/>
            <stop offset="69%" stop-color="#CFCFCF"/>
        </linearGradient>
        <linearGradient id="Y" x1="85.366%" x2="-454.034%" y1="-47.903%" y2="1478.618%">
            <stop offset="1%" stop-color="#D9D9D9"/>
            <stop offset="29%" stop-color="#FFF"/>
            <stop offset="46%" stop-color="#EEE"/>
            <stop offset="69%" stop-color="#CFCFCF"/>
        </linearGradient>
        <linearGradient id="Z" x1="111.632%" x2="-427.767%" y1="-124.236%" y2="1401.996%">
            <stop offset="1%" stop-color="#D9D9D9"/>
            <stop offset="29%" stop-color="#FFF"/>
            <stop offset="46%" stop-color="#EEE"/>
            <stop offset="69%" stop-color="#CFCFCF"/>
        </linearGradient>
        <linearGradient id="aa" x1="106.191%" x2="-433.208%" y1="-107.346%" y2="1418.955%">
            <stop offset="1%" stop-color="#D9D9D9"/>
            <stop offset="29%" stop-color="#FFF"/>
            <stop offset="46%" stop-color="#EEE"/>
            <stop offset="69%" stop-color="#CFCFCF"/>
        </linearGradient>
        <linearGradient id="ab" x1="186.304%" x2="-353.283%" y1="-929.808%" y2="2955.001%">
            <stop offset="1%" stop-color="#D9D9D9"/>
            <stop offset="29%" stop-color="#FFF"/>
            <stop offset="46%" stop-color="#EEE"/>
            <stop offset="69%" stop-color="#CFCFCF"/>
        </linearGradient>
        <linearGradient id="ac" x1="203.189%" x2="-336.21%" y1="-382.338%" y2="1144.041%">
            <stop offset="1%" stop-color="#D9D9D9"/>
            <stop offset="29%" stop-color="#FFF"/>
            <stop offset="46%" stop-color="#EEE"/>
            <stop offset="69%" stop-color="#CFCFCF"/>
        </linearGradient>
        <linearGradient id="ad" x1="195.497%" x2="-344.09%" y1="-360.476%" y2="1165.976%">
            <stop offset="1%" stop-color="#D9D9D9"/>
            <stop offset="29%" stop-color="#FFF"/>
            <stop offset="46%" stop-color="#EEE"/>
            <stop offset="69%" stop-color="#CFCFCF"/>
        </linearGradient>
        <linearGradient id="ae" x1="187.242%" x2="-352.158%" y1="-338.395%" y2="1187.765%">
            <stop offset="1%" stop-color="#D9D9D9"/>
            <stop offset="29%" stop-color="#FFF"/>
            <stop offset="46%" stop-color="#EEE"/>
            <stop offset="69%" stop-color="#CFCFCF"/>
        </linearGradient>
        <linearGradient id="af" x1="240.179%" x2="-273.214%" y1="-1090.615%" y2="1990.581%">
            <stop offset="1%" stop-color="#D9D9D9"/>
            <stop offset="29%" stop-color="#FFF"/>
            <stop offset="46%" stop-color="#EEE"/>
            <stop offset="69%" stop-color="#CFCFCF"/>
        </linearGradient>
        <linearGradient id="ag" x1="218.574%" x2="-320.826%" y1="-425.842%" y2="1100.391%">
            <stop offset="1%" stop-color="#D9D9D9"/>
            <stop offset="29%" stop-color="#FFF"/>
            <stop offset="46%" stop-color="#EEE"/>
            <stop offset="69%" stop-color="#CFCFCF"/>
        </linearGradient>
        <linearGradient id="ah" x1="210.319%" x2="-328.893%" y1="-403.761%" y2="1122.326%">
            <stop offset="1%" stop-color="#D9D9D9"/>
            <stop offset="29%" stop-color="#FFF"/>
            <stop offset="46%" stop-color="#EEE"/>
            <stop offset="69%" stop-color="#CFCFCF"/>
        </linearGradient>
        <linearGradient id="ai" x1="137.949%" x2="-1073.286%" y1="-55.275%" y2="1404.81%">
            <stop offset="1%" stop-color="#D9D9D9"/>
            <stop offset="29%" stop-color="#FFF"/>
            <stop offset="46%" stop-color="#EEE"/>
            <stop offset="69%" stop-color="#CFCFCF"/>
        </linearGradient>
        <linearGradient id="aj" x1="209.336%" x2="-1637.862%" y1="-65.902%" y2="1280.904%">
            <stop offset="1%" stop-color="#D9D9D9"/>
            <stop offset="29%" stop-color="#FFF"/>
            <stop offset="46%" stop-color="#EEE"/>
            <stop offset="69%" stop-color="#CFCFCF"/>
        </linearGradient>
        <linearGradient id="ak" x1="306.279%" x2="-2119.842%" y1="-75.901%" y2="1115.859%">
            <stop offset="1%" stop-color="#D9D9D9"/>
            <stop offset="29%" stop-color="#FFF"/>
            <stop offset="46%" stop-color="#EEE"/>
            <stop offset="69%" stop-color="#CFCFCF"/>
        </linearGradient>
        <linearGradient id="al" x1="470.617%" x2="-2451.023%" y1="-75.714%" y2="933.502%">
            <stop offset="1%" stop-color="#D9D9D9"/>
            <stop offset="29%" stop-color="#FFF"/>
            <stop offset="46%" stop-color="#EEE"/>
            <stop offset="69%" stop-color="#CFCFCF"/>
        </linearGradient>
        <linearGradient id="am" x1="583.026%" x2="-2763.484%" y1="-75.27%" y2="712.135%">
            <stop offset="1%" stop-color="#D9D9D9"/>
            <stop offset="29%" stop-color="#FFF"/>
            <stop offset="46%" stop-color="#EEE"/>
            <stop offset="69%" stop-color="#CFCFCF"/>
        </linearGradient>
        <linearGradient id="an" x1="-49.226%" x2="505.165%" y1="-623.762%" y2="3053.302%">
            <stop offset="1%" stop-color="#D9D9D9"/>
            <stop offset="29%" stop-color="#FFF"/>
            <stop offset="46%" stop-color="#EEE"/>
            <stop offset="69%" stop-color="#CFCFCF"/>
        </linearGradient>
        <linearGradient id="ao" x1="-20.758%" x2="292.068%" y1="-823.274%" y2="3041.528%">
            <stop offset="1%" stop-color="#D9D9D9"/>
            <stop offset="29%" stop-color="#FFF"/>
            <stop offset="46%" stop-color="#EEE"/>
            <stop offset="69%" stop-color="#CFCFCF"/>
        </linearGradient>
        <linearGradient id="ap" x1="35.208%" x2="91.733%" y1="-985.183%" y2="2965.862%">
            <stop offset="1%" stop-color="#D9D9D9"/>
            <stop offset="29%" stop-color="#FFF"/>
            <stop offset="46%" stop-color="#EEE"/>
            <stop offset="69%" stop-color="#CFCFCF"/>
        </linearGradient>
        <linearGradient id="aq" x1="111.401%" x2="-95.307%" y1="-1117.448%" y2="2799.062%">
            <stop offset="1%" stop-color="#D9D9D9"/>
            <stop offset="29%" stop-color="#FFF"/>
            <stop offset="46%" stop-color="#EEE"/>
            <stop offset="69%" stop-color="#CFCFCF"/>
        </linearGradient>
        <linearGradient id="ar" x1="206.661%" x2="-254.993%" y1="-1254.739%" y2="2492.295%">
            <stop offset="1%" stop-color="#D9D9D9"/>
            <stop offset="29%" stop-color="#FFF"/>
            <stop offset="46%" stop-color="#EEE"/>
            <stop offset="69%" stop-color="#CFCFCF"/>
        </linearGradient>
        <linearGradient id="as" x1="313.4%" x2="-404.595%" y1="-1232.761%" y2="2263.245%">
            <stop offset="1%" stop-color="#D9D9D9"/>
            <stop offset="29%" stop-color="#FFF"/>
            <stop offset="46%" stop-color="#EEE"/>
            <stop offset="69%" stop-color="#CFCFCF"/>
        </linearGradient>
        <linearGradient id="at" x1="433.604%" x2="-513.11%" y1="-1163.848%" y2="1973.326%">
            <stop offset="1%" stop-color="#D9D9D9"/>
            <stop offset="29%" stop-color="#FFF"/>
            <stop offset="46%" stop-color="#EEE"/>
            <stop offset="69%" stop-color="#CFCFCF"/>
        </linearGradient>
        <linearGradient id="au" x1="549.986%" x2="-589.205%" y1="-1062.195%" y2="1608.302%">
            <stop offset="1%" stop-color="#D9D9D9"/>
            <stop offset="29%" stop-color="#FFF"/>
            <stop offset="46%" stop-color="#EEE"/>
            <stop offset="69%" stop-color="#CFCFCF"/>
        </linearGradient>
        <linearGradient id="av" x1="629.698%" x2="-669.998%" y1="-888.656%" y2="1215.967%">
            <stop offset="1%" stop-color="#D9D9D9"/>
            <stop offset="29%" stop-color="#FFF"/>
            <stop offset="46%" stop-color="#EEE"/>
            <stop offset="69%" stop-color="#CFCFCF"/>
        </linearGradient>
        <linearGradient id="aw" x1="-618.848%" x2="870.317%" y1="-595.309%" y2="827.69%">
            <stop offset="1%" stop-color="#D9D9D9"/>
            <stop offset="29%" stop-color="#FFF"/>
            <stop offset="46%" stop-color="#EEE"/>
            <stop offset="69%" stop-color="#CFCFCF"/>
        </linearGradient>
        <linearGradient id="ax" x1="-344.249%" x2="489.563%" y1="-661.805%" y2="841.864%">
            <stop offset="1%" stop-color="#D9D9D9"/>
            <stop offset="29%" stop-color="#FFF"/>
            <stop offset="46%" stop-color="#EEE"/>
            <stop offset="69%" stop-color="#CFCFCF"/>
        </linearGradient>
        <linearGradient id="ay" x1="-21.57%" x2="127.396%" y1="-686.654%" y2="855.126%">
            <stop offset="1%" stop-color="#D9D9D9"/>
            <stop offset="29%" stop-color="#FFF"/>
            <stop offset="46%" stop-color="#EEE"/>
            <stop offset="69%" stop-color="#CFCFCF"/>
        </linearGradient>
        <linearGradient id="az" x1="306.632%" x2="-232.084%" y1="-676.723%" y2="849.624%">
            <stop offset="1%" stop-color="#D9D9D9"/>
            <stop offset="29%" stop-color="#FFF"/>
            <stop offset="46%" stop-color="#EEE"/>
            <stop offset="69%" stop-color="#CFCFCF"/>
        </linearGradient>
        <linearGradient id="aA" x1="613.51%" x2="-580.565%" y1="-654.167%" y2="799.183%">
            <stop offset="1%" stop-color="#D9D9D9"/>
            <stop offset="29%" stop-color="#FFF"/>
            <stop offset="46%" stop-color="#EEE"/>
            <stop offset="69%" stop-color="#CFCFCF"/>
        </linearGradient>
        <linearGradient id="aB" x1="888.152%" x2="-956.718%" y1="-561.533%" y2="785.364%">
            <stop offset="1%" stop-color="#D9D9D9"/>
            <stop offset="29%" stop-color="#FFF"/>
            <stop offset="46%" stop-color="#EEE"/>
            <stop offset="69%" stop-color="#CFCFCF"/>
        </linearGradient>
        <linearGradient id="aC" x1="848.431%" x2="-998.157%" y1="-532.349%" y2="814.593%">
            <stop offset="1%" stop-color="#D9D9D9"/>
            <stop offset="29%" stop-color="#FFF"/>
            <stop offset="46%" stop-color="#EEE"/>
            <stop offset="69%" stop-color="#CFCFCF"/>
        </linearGradient>
        <linearGradient id="aD" x1="815.021%" x2="-1023.565%" y1="-502.117%" y2="845.448%">
            <stop offset="1%" stop-color="#D9D9D9"/>
            <stop offset="29%" stop-color="#FFF"/>
            <stop offset="46%" stop-color="#EEE"/>
            <stop offset="69%" stop-color="#CFCFCF"/>
        </linearGradient>
        <linearGradient id="aE" x1="757.031%" x2="-1088.512%" y1="-465.558%" y2="881.618%">
            <stop offset="1%" stop-color="#D9D9D9"/>
            <stop offset="29%" stop-color="#FFF"/>
            <stop offset="46%" stop-color="#EEE"/>
            <stop offset="69%" stop-color="#CFCFCF"/>
        </linearGradient>
        <linearGradient id="aF" x1="1127.914%" x2="-1299.713%" y1="-457.327%" y2="740.486%">
            <stop offset="1%" stop-color="#D9D9D9"/>
            <stop offset="29%" stop-color="#FFF"/>
            <stop offset="46%" stop-color="#EEE"/>
            <stop offset="69%" stop-color="#CFCFCF"/>
        </linearGradient>
        <linearGradient id="aG" x1="1294.201%" x2="-1627.704%" y1="-357.088%" y2="652.146%">
            <stop offset="1%" stop-color="#D9D9D9"/>
            <stop offset="29%" stop-color="#FFF"/>
            <stop offset="46%" stop-color="#EEE"/>
            <stop offset="69%" stop-color="#CFCFCF"/>
        </linearGradient>
        <linearGradient id="aH" x1="-238.001%" x2="517.983%" y1="-1268.834%" y2="2194.285%">
            <stop offset="1%" stop-color="#D9D9D9"/>
            <stop offset="29%" stop-color="#FFF"/>
            <stop offset="46%" stop-color="#EEE"/>
            <stop offset="69%" stop-color="#CFCFCF"/>
        </linearGradient>
        <linearGradient id="aI" x1="-134.794%" x2="419.698%" y1="-1196.704%" y2="2480.85%">
            <stop offset="1%" stop-color="#D9D9D9"/>
            <stop offset="29%" stop-color="#FFF"/>
            <stop offset="46%" stop-color="#EEE"/>
            <stop offset="69%" stop-color="#CFCFCF"/>
        </linearGradient>
        <linearGradient id="aJ" x1="-48.269%" x2="264.582%" y1="-1163.953%" y2="2701.025%">
            <stop offset="1%" stop-color="#D9D9D9"/>
            <stop offset="29%" stop-color="#FFF"/>
            <stop offset="46%" stop-color="#EEE"/>
            <stop offset="69%" stop-color="#CFCFCF"/>
        </linearGradient>
        <linearGradient id="aK" x1="-112.002%" x2="397.438%" y1="-1204.317%" y2="2495.565%">
            <stop offset="1%" stop-color="#D9D9D9"/>
            <stop offset="29%" stop-color="#FFF"/>
            <stop offset="46%" stop-color="#EEE"/>
            <stop offset="69%" stop-color="#CFCFCF"/>
        </linearGradient>
        <linearGradient id="aL" x1="34.344%" x2="90.89%" y1="-1048.737%" y2="2901.537%">
            <stop offset="1%" stop-color="#D9D9D9"/>
            <stop offset="29%" stop-color="#FFF"/>
            <stop offset="46%" stop-color="#EEE"/>
            <stop offset="69%" stop-color="#CFCFCF"/>
        </linearGradient>
        <linearGradient id="aM" x1="100.113%" x2="-106.595%" y1="-897.936%" y2="3018.949%">
            <stop offset="1%" stop-color="#D9D9D9"/>
            <stop offset="29%" stop-color="#FFF"/>
            <stop offset="46%" stop-color="#EEE"/>
            <stop offset="69%" stop-color="#CFCFCF"/>
        </linearGradient>
        <linearGradient id="aN" x1="144.519%" x2="-317.193%" y1="-783.079%" y2="2963.739%">
            <stop offset="1%" stop-color="#D9D9D9"/>
            <stop offset="29%" stop-color="#FFF"/>
            <stop offset="46%" stop-color="#EEE"/>
            <stop offset="69%" stop-color="#CFCFCF"/>
        </linearGradient>
        <linearGradient id="aO" x1="174.552%" x2="-543.418%" y1="-555.288%" y2="2940.543%">
            <stop offset="1%" stop-color="#D9D9D9"/>
            <stop offset="29%" stop-color="#FFF"/>
            <stop offset="46%" stop-color="#EEE"/>
            <stop offset="69%" stop-color="#CFCFCF"/>
        </linearGradient>
        <linearGradient id="aP" x1="194.08%" x2="-752.78%" y1="-367.829%" y2="2769.998%">
            <stop offset="1%" stop-color="#D9D9D9"/>
            <stop offset="29%" stop-color="#FFF"/>
            <stop offset="46%" stop-color="#EEE"/>
            <stop offset="69%" stop-color="#CFCFCF"/>
        </linearGradient>
        <linearGradient id="aQ" x1="198.684%" x2="-940.464%" y1="-247.659%" y2="2422.694%">
            <stop offset="1%" stop-color="#D9D9D9"/>
            <stop offset="29%" stop-color="#FFF"/>
            <stop offset="46%" stop-color="#EEE"/>
            <stop offset="69%" stop-color="#CFCFCF"/>
        </linearGradient>
        <linearGradient id="aR" x1="172.179%" x2="-1127.764%" y1="-148.045%" y2="1956.236%">
            <stop offset="1%" stop-color="#D9D9D9"/>
            <stop offset="29%" stop-color="#FFF"/>
            <stop offset="46%" stop-color="#EEE"/>
            <stop offset="69%" stop-color="#CFCFCF"/>
        </linearGradient>
        <linearGradient id="aS" x1="-73.949%" x2="1524.939%" y1="-65.06%" y2="1420.176%">
            <stop offset="1%" stop-color="#D9D9D9"/>
            <stop offset="29%" stop-color="#FFF"/>
            <stop offset="46%" stop-color="#EEE"/>
            <stop offset="69%" stop-color="#CFCFCF"/>
        </linearGradient>
        <linearGradient id="aT" x1="-5.072%" x2="827.583%" y1="-50.742%" y2="1453.291%">
            <stop offset="1%" stop-color="#D9D9D9"/>
            <stop offset="29%" stop-color="#FFF"/>
            <stop offset="46%" stop-color="#EEE"/>
            <stop offset="69%" stop-color="#CFCFCF"/>
        </linearGradient>
        <linearGradient id="aU" x1="40.637%" x2="189.592%" y1="-45.887%" y2="1495.448%">
            <stop offset="1%" stop-color="#D9D9D9"/>
            <stop offset="29%" stop-color="#FFF"/>
            <stop offset="46%" stop-color="#EEE"/>
            <stop offset="69%" stop-color="#CFCFCF"/>
        </linearGradient>
        <linearGradient id="aV" x1="-489.991%" x2="1176.803%" y1="-716.24%" y2="1650.096%">
            <stop offset="1%" stop-color="#D9D9D9"/>
            <stop offset="29%" stop-color="#FFF"/>
            <stop offset="46%" stop-color="#EEE"/>
            <stop offset="69%" stop-color="#CFCFCF"/>
        </linearGradient>
        <linearGradient id="aW" x1="-304.05%" x2="791.931%" y1="-500.34%" y2="1204.404%">
            <stop offset="1%" stop-color="#D9D9D9"/>
            <stop offset="29%" stop-color="#FFF"/>
            <stop offset="46%" stop-color="#EEE"/>
            <stop offset="69%" stop-color="#CFCFCF"/>
        </linearGradient>
        <linearGradient id="aX" x1="-293.994%" x2="813.295%" y1="-438.157%" y2="1134.26%">
            <stop offset="1%" stop-color="#D9D9D9"/>
            <stop offset="29%" stop-color="#FFF"/>
            <stop offset="46%" stop-color="#EEE"/>
            <stop offset="69%" stop-color="#CFCFCF"/>
        </linearGradient>
        <linearGradient id="aY" x1="-197.765%" x2="601.6%" y1="-315.873%" y2="865.293%">
            <stop offset="1%" stop-color="#D9D9D9"/>
            <stop offset="29%" stop-color="#FFF"/>
            <stop offset="46%" stop-color="#EEE"/>
            <stop offset="69%" stop-color="#CFCFCF"/>
        </linearGradient>
        <linearGradient id="aZ" x1="-207.957%" x2="659.802%" y1="-316.474%" y2="916.867%">
            <stop offset="1%" stop-color="#D9D9D9"/>
            <stop offset="29%" stop-color="#FFF"/>
            <stop offset="46%" stop-color="#EEE"/>
            <stop offset="69%" stop-color="#CFCFCF"/>
        </linearGradient>
        <linearGradient id="ba" x1="-155.17%" x2="536.639%" y1="-254.292%" y2="772.308%">
            <stop offset="1%" stop-color="#D9D9D9"/>
            <stop offset="29%" stop-color="#FFF"/>
            <stop offset="46%" stop-color="#EEE"/>
            <stop offset="69%" stop-color="#CFCFCF"/>
        </linearGradient>
        <linearGradient id="bb" x1="-158.386%" x2="576.131%" y1="-245.808%" y2="797.562%">
            <stop offset="1%" stop-color="#D9D9D9"/>
            <stop offset="29%" stop-color="#FFF"/>
            <stop offset="46%" stop-color="#EEE"/>
            <stop offset="69%" stop-color="#CFCFCF"/>
        </linearGradient>
        <linearGradient id="bc" x1="-124.215%" x2="491.18%" y1="-207.164%" y2="701.799%">
            <stop offset="1%" stop-color="#D9D9D9"/>
            <stop offset="29%" stop-color="#FFF"/>
            <stop offset="46%" stop-color="#EEE"/>
            <stop offset="69%" stop-color="#CFCFCF"/>
        </linearGradient>
        <linearGradient id="bd" x1="-183.791%" x2="686.7%" y1="-281.507%" y2="953.438%">
            <stop offset="1%" stop-color="#D9D9D9"/>
            <stop offset="29%" stop-color="#FFF"/>
            <stop offset="46%" stop-color="#EEE"/>
            <stop offset="69%" stop-color="#CFCFCF"/>
        </linearGradient>
        <linearGradient id="be" x1="-133.475%" x2="551.973%" y1="-217.104%" y2="781.732%">
            <stop offset="1%" stop-color="#D9D9D9"/>
            <stop offset="29%" stop-color="#FFF"/>
            <stop offset="46%" stop-color="#EEE"/>
            <stop offset="69%" stop-color="#CFCFCF"/>
        </linearGradient>
        <linearGradient id="bf" x1="-230.331%" x2="876.02%" y1="-347.856%" y2="1223.295%">
            <stop offset="1%" stop-color="#D9D9D9"/>
            <stop offset="29%" stop-color="#FFF"/>
            <stop offset="46%" stop-color="#EEE"/>
            <stop offset="69%" stop-color="#CFCFCF"/>
        </linearGradient>
        <linearGradient id="bg" x1="-176.176%" x2="719.741%" y1="-289.022%" y2="1054.584%">
            <stop offset="1%" stop-color="#D9D9D9"/>
            <stop offset="29%" stop-color="#FFF"/>
            <stop offset="46%" stop-color="#EEE"/>
            <stop offset="69%" stop-color="#CFCFCF"/>
        </linearGradient>
        <linearGradient id="bh" x1="367.159%" x2="-693.727%" y1="-2114.559%" y2="5130.137%">
            <stop offset="1%" stop-color="#D9D9D9"/>
            <stop offset="29%" stop-color="#FFF"/>
            <stop offset="46%" stop-color="#EEE"/>
            <stop offset="69%" stop-color="#CFCFCF"/>
        </linearGradient>
        <linearGradient id="bi" x1="-475.454%" x2="1736.649%" y1="-695.616%" y2="2445.767%">
            <stop offset="1%" stop-color="#D9D9D9"/>
            <stop offset="29%" stop-color="#FFF"/>
            <stop offset="46%" stop-color="#EEE"/>
            <stop offset="69%" stop-color="#CFCFCF"/>
        </linearGradient>
        <linearGradient id="bj" x1="-346.226%" x2="1026.681%" y1="-691.897%" y2="1884.13%">
            <stop offset="1%" stop-color="#D9D9D9"/>
            <stop offset="29%" stop-color="#FFF"/>
            <stop offset="46%" stop-color="#EEE"/>
            <stop offset="69%" stop-color="#CFCFCF"/>
        </linearGradient>
        <linearGradient id="bk" x1="-275.899%" x2="906.665%" y1="-572.114%" y2="1692.725%">
            <stop offset="1%" stop-color="#D9D9D9"/>
            <stop offset="29%" stop-color="#FFF"/>
            <stop offset="46%" stop-color="#EEE"/>
            <stop offset="69%" stop-color="#CFCFCF"/>
        </linearGradient>
        <linearGradient id="bl" x1="-197.11%" x2="746.461%" y1="-402.72%" y2="1331.875%">
            <stop offset="1%" stop-color="#D9D9D9"/>
            <stop offset="29%" stop-color="#FFF"/>
            <stop offset="46%" stop-color="#EEE"/>
            <stop offset="69%" stop-color="#CFCFCF"/>
        </linearGradient>
        <linearGradient id="bm" x1="-138.649%" x2="636.605%" y1="-179.879%" y2="769.461%">
            <stop offset="1%" stop-color="#D9D9D9"/>
            <stop offset="29%" stop-color="#FFF"/>
            <stop offset="46%" stop-color="#EEE"/>
            <stop offset="69%" stop-color="#CFCFCF"/>
        </linearGradient>
        <linearGradient id="bn" x1="-143.634%" x2="705.51%" y1="-175.203%" y2="817.886%">
            <stop offset="1%" stop-color="#D9D9D9"/>
            <stop offset="29%" stop-color="#FFF"/>
            <stop offset="46%" stop-color="#EEE"/>
            <stop offset="69%" stop-color="#CFCFCF"/>
        </linearGradient>
        <linearGradient id="bo" x1="-159.382%" x2="824.723%" y1="-174.922%" y2="887.171%">
            <stop offset="1%" stop-color="#D9D9D9"/>
            <stop offset="29%" stop-color="#FFF"/>
            <stop offset="46%" stop-color="#EEE"/>
            <stop offset="69%" stop-color="#CFCFCF"/>
        </linearGradient>
        <linearGradient id="bp" x1="-172.912%" x2="952.26%" y1="-176.134%" y2="972.641%">
            <stop offset="1%" stop-color="#D9D9D9"/>
            <stop offset="29%" stop-color="#FFF"/>
            <stop offset="46%" stop-color="#EEE"/>
            <stop offset="69%" stop-color="#CFCFCF"/>
        </linearGradient>
        <linearGradient id="bq" x1="-151.162%" x2="1515.491%" y1="-678.891%" y2="5366.031%">
            <stop offset="1%" stop-color="#D9D9D9"/>
            <stop offset="29%" stop-color="#FFF"/>
            <stop offset="46%" stop-color="#EEE"/>
            <stop offset="69%" stop-color="#CFCFCF"/>
        </linearGradient>
        <linearGradient id="br" x1="83.081%" x2="-191.757%" y1="-621.667%" y2="4945.533%">
            <stop offset="1%" stop-color="#D9D9D9"/>
            <stop offset="29%" stop-color="#FFF"/>
            <stop offset="46%" stop-color="#EEE"/>
            <stop offset="69%" stop-color="#CFCFCF"/>
        </linearGradient>
        <linearGradient id="bs" x1="-160.6%" x2="1506.052%" y1="-712.768%" y2="5332.154%">
            <stop offset="1%" stop-color="#D9D9D9"/>
            <stop offset="29%" stop-color="#FFF"/>
            <stop offset="46%" stop-color="#EEE"/>
            <stop offset="69%" stop-color="#CFCFCF"/>
        </linearGradient>
        <linearGradient id="bt" x1="84.646%" x2="-190.892%" y1="-652.533%" y2="4913.333%">
            <stop offset="1%" stop-color="#D9D9D9"/>
            <stop offset="29%" stop-color="#FFF"/>
            <stop offset="46%" stop-color="#EEE"/>
            <stop offset="69%" stop-color="#CFCFCF"/>
        </linearGradient>
        <linearGradient id="bx" x1="93.297%" x2="6.703%" y1="100%" y2="0%">
            <stop offset="0%" stop-color="#EAEAEA"/>
            <stop offset="31.065%" stop-color="#B5B5B5"/>
            <stop offset="59.263%" stop-color="#D1D1D1"/>
            <stop offset="100%" stop-color="#ECECEC"/>
        </linearGradient>
        <radialGradient id="bw" cy="0%" r="107.463%" fx="50%" fy="0%" gradientTransform="matrix(0 .93056 -.94915 0 .5 -.465)">
            <stop offset="0%" stop-color="#EDEDED"/>
            <stop offset="75.913%" stop-color="#FFF"/>
            <stop offset="100%" stop-color="#939393"/>
        </radialGradient>
        <path id="bv" d="M49.42 23.723l.373.009a9.409 9.409 0 0 1 4.253 1.224l.041.018.266.156c2.449 1.5 4.075 4.036 4.38 6.858l.176 1.607 1.5-.657.362-.149a9.48 9.48 0 0 1 3.443-.642l.352.007a9.514 9.514 0 0 1 4.33 1.227l.121.073.262.153c2.758 1.68 4.444 4.65 4.444 7.833l-.006.308c-.097 2.862-1.557 5.542-3.947 7.209l-1.38.959 1.38.958.252.183c2.324 1.742 3.7 4.464 3.7 7.334v.169l-.005.306c-.108 3.162-1.878 6.078-4.677 7.667l-.13.077-.31.168a9.557 9.557 0 0 1-4.386 1.07l-.399-.008a9.464 9.464 0 0 1-3.42-.787L58.91 66.4l-.19 1.59-.041.3a9.257 9.257 0 0 1-4.405 6.512l-.232.137-.318.182a9.474 9.474 0 0 1-4.541 1.156l-.352-.006a9.485 9.485 0 0 1-4.335-1.227l-.06-.031-.264-.156c-2.428-1.491-4.054-4.028-4.359-6.845l-.172-1.607-1.5.653-.363.148a9.531 9.531 0 0 1-3.446.642l-.352-.007a9.517 9.517 0 0 1-4.335-1.222l-.135-.082-.268-.158c-2.74-1.677-4.423-4.643-4.423-7.82l.005-.307c.098-2.867 1.562-5.542 3.952-7.213l1.375-.96-1.375-.958-.252-.182c-2.324-1.738-3.705-4.46-3.705-7.334v-.165l.005-.307c.108-3.161 1.878-6.082 4.677-7.67l.149-.082.306-.167a9.5 9.5 0 0 1 4.371-1.067l.399.009a9.43 9.43 0 0 1 3.424.79l1.482.65.195-1.59.041-.3c.414-2.688 2.044-5.104 4.405-6.513l.237-.142.313-.177a9.543 9.543 0 0 1 4.492-1.151h.105zm1.765 5.611a4.14 4.14 0 0 0-3.94.16l-.237.142-.187.12c-1.099.745-1.783 1.995-1.783 3.314v4.21l-4.859 2.758-3.804-2.164-.213-.112a4.18 4.18 0 0 0-3.875.112l-.14.087-.195.118A4.014 4.014 0 0 0 30.1 41.44v.165l.007.225a4.012 4.012 0 0 0 2.042 3.25l3.892 2.21.033 5.502-3.967 2.307-.192.119A4.02 4.02 0 0 0 30.1 58.56l.007.224a4.019 4.019 0 0 0 2.042 3.25l.144.088.212.112a4.172 4.172 0 0 0 3.87-.112l3.805-2.165 4.86 2.763v4.32l.006.224a4.03 4.03 0 0 0 2.042 3.255l.05.032.219.115a4.16 4.16 0 0 0 3.944-.16l.237-.142.187-.119a4.024 4.024 0 0 0 1.778-3.315v-4.21l4.859-2.763 3.804 2.165.214.112c1.228.598 2.69.56 3.879-.112l.14-.083.194-.118a4.017 4.017 0 0 0 1.849-3.361v-.17l-.007-.223a4.013 4.013 0 0 0-2.037-3.251l-3.897-2.21-.033-5.503 3.972-2.306.191-.119a4.021 4.021 0 0 0 1.81-3.338l-.006-.225a4.02 4.02 0 0 0-2.037-3.254l-.14-.087-.212-.112a4.19 4.19 0 0 0-3.88.112l-3.804 2.164-4.86-2.758v-4.32l-.006-.225a4.016 4.016 0 0 0-2.042-3.259l-.05-.027zm-11.468 17.11l7.906 4.482v8.977l-7.906-4.489v-8.97zm19.106 0v8.97l-7.906 4.489v-8.977l7.906-4.482zm-9.553-7.293l7.906 4.489-7.906 4.482-7.906-4.482 7.906-4.489z"/>
        <filter id="bu" width="112.3%" height="111.4%" x="-6.1%" y="-3.8%" filterUnits="objectBoundingBox">
            <feMorphology in="SourceAlpha" operator="dilate" radius="1" result="shadowSpreadOuter1"/>
            <feOffset dy="1" in="shadowSpreadOuter1" result="shadowOffsetOuter1"/>
            <feGaussianBlur in="shadowOffsetOuter1" result="shadowBlurOuter1" stdDeviation=".5"/>
            <feComposite in="shadowBlurOuter1" in2="SourceAlpha" operator="out" result="shadowBlurOuter1"/>
            <feColorMatrix in="shadowBlurOuter1" values="0 0 0 0 0 0 0 0 0 0 0 0 0 0 0 0 0 0 0.24 0"/>
        </filter>
        <filter id="by" width="248.7%" height="248.6%" x="-74.4%" y="-74.3%" filterUnits="objectBoundingBox">
            <feGaussianBlur in="SourceGraphic" stdDeviation="4"/>
        </filter>
        <filter id="bz" width="248.7%" height="248.6%" x="-74.4%" y="-74.3%" filterUnits="objectBoundingBox">
            <feGaussianBlur in="SourceGraphic" stdDeviation="4"/>
        </filter>
        <filter id="bA" width="340.2%" height="340%" x="-120.1%" y="-120%" filterUnits="objectBoundingBox">
            <feGaussianBlur in="SourceGraphic" stdDeviation="4"/>
        </filter>
        <filter id="bB" width="340.2%" height="340%" x="-120.1%" y="-120%" filterUnits="objectBoundingBox">
            <feGaussianBlur in="SourceGraphic" stdDeviation="4"/>
        </filter>
        <linearGradient id="bC" x1="-.058%" x2="100.012%" y1="49.914%" y2="49.914%">
            <stop offset="0%" stop-color="#C6972F"/>
            <stop offset="12%" stop-color="#B37E10"/>
            <stop offset="33%" stop-color="#F8DD7B"/>
            <stop offset="61%" stop-color="#F8DD7B"/>
            <stop offset="62%" stop-color="#F6DA78"/>
            <stop offset="69%" stop-color="#DEB953"/>
            <stop offset="76%" stop-color="#CB9F36"/>
            <stop offset="83%" stop-color="#BE8D21"/>
            <stop offset="90%" stop-color="#B68214"/>
            <stop offset="97%" stop-color="#B37E10"/>
        </linearGradient>
        <linearGradient id="bD" x1="0%" y1="50%" y2="50%">
            <stop offset="0%" stop-color="#C6972F"/>
            <stop offset="12%" stop-color="#B37E10"/>
            <stop offset="26%" stop-color="#F8DD7B"/>
            <stop offset="37%" stop-color="#F8DD7B"/>
            <stop offset="38%" stop-color="#F6DA78"/>
            <stop offset="50%" stop-color="#DEB953"/>
            <stop offset="62%" stop-color="#CB9F36"/>
            <stop offset="74%" stop-color="#BE8D21"/>
            <stop offset="86%" stop-color="#B68214"/>
            <stop offset="97%" stop-color="#B37E10"/>
        </linearGradient>
        <linearGradient id="bE" x1=".753%" x2="99.97%" y1="49.955%" y2="49.955%">
            <stop offset="3%" stop-color="#B37E10"/>
            <stop offset="12%" stop-color="#B68214"/>
            <stop offset="22%" stop-color="#BE8D21"/>
            <stop offset="32%" stop-color="#CB9F36"/>
            <stop offset="42%" stop-color="#DEB953"/>
            <stop offset="52%" stop-color="#F6DA78"/>
            <stop offset="53%" stop-color="#F8DD7B"/>
            <stop offset="74%" stop-color="#F8DD7B"/>
            <stop offset="88%" stop-color="#B37E10"/>
            <stop offset="100%" stop-color="#C6972F"/>
        </linearGradient>
        <linearGradient id="bF" x1="0%" y1="50.06%" y2="50.06%">
            <stop offset="3%" stop-color="#B37E10"/>
            <stop offset="12%" stop-color="#B68214"/>
            <stop offset="22%" stop-color="#BE8D21"/>
            <stop offset="32%" stop-color="#CB9F36"/>
            <stop offset="42%" stop-color="#DEB953"/>
            <stop offset="52%" stop-color="#F6DA78"/>
            <stop offset="53%" stop-color="#F8DD7B"/>
            <stop offset="74%" stop-color="#F8DD7B"/>
            <stop offset="88%" stop-color="#B37E10"/>
            <stop offset="100%" stop-color="#C6972F"/>
        </linearGradient>
        <linearGradient id="bG" x1="-.058%" x2="100.012%" y1="49.914%" y2="49.914%">
            <stop offset="0%" stop-color="#C6972F"/>
            <stop offset="12%" stop-color="#B37E10"/>
            <stop offset="33%" stop-color="#F8DD7B"/>
            <stop offset="61%" stop-color="#F8DD7B"/>
            <stop offset="62%" stop-color="#F6DA78"/>
            <stop offset="69%" stop-color="#DEB953"/>
            <stop offset="76%" stop-color="#CB9F36"/>
            <stop offset="83%" stop-color="#BE8D21"/>
            <stop offset="90%" stop-color="#B68214"/>
            <stop offset="97%" stop-color="#B37E10"/>
        </linearGradient>
        <linearGradient id="bH" x1="0%" y1="50%" y2="50%">
            <stop offset="0%" stop-color="#C6972F"/>
            <stop offset="12%" stop-color="#B37E10"/>
            <stop offset="26%" stop-color="#F8DD7B"/>
            <stop offset="37%" stop-color="#F8DD7B"/>
            <stop offset="38%" stop-color="#F6DA78"/>
            <stop offset="50%" stop-color="#DEB953"/>
            <stop offset="62%" stop-color="#CB9F36"/>
            <stop offset="74%" stop-color="#BE8D21"/>
            <stop offset="86%" stop-color="#B68214"/>
            <stop offset="97%" stop-color="#B37E10"/>
        </linearGradient>
        <linearGradient id="bI" x1=".753%" x2="99.97%" y1="49.955%" y2="49.955%">
            <stop offset="3%" stop-color="#B37E10"/>
            <stop offset="12%" stop-color="#B68214"/>
            <stop offset="22%" stop-color="#BE8D21"/>
            <stop offset="32%" stop-color="#CB9F36"/>
            <stop offset="42%" stop-color="#DEB953"/>
            <stop offset="52%" stop-color="#F6DA78"/>
            <stop offset="53%" stop-color="#F8DD7B"/>
            <stop offset="74%" stop-color="#F8DD7B"/>
            <stop offset="88%" stop-color="#B37E10"/>
            <stop offset="100%" stop-color="#C6972F"/>
        </linearGradient>
        <linearGradient id="bJ" x1="0%" y1="50.06%" y2="50.06%">
            <stop offset="3%" stop-color="#B37E10"/>
            <stop offset="12%" stop-color="#B68214"/>
            <stop offset="22%" stop-color="#BE8D21"/>
            <stop offset="32%" stop-color="#CB9F36"/>
            <stop offset="42%" stop-color="#DEB953"/>
            <stop offset="52%" stop-color="#F6DA78"/>
            <stop offset="53%" stop-color="#F8DD7B"/>
            <stop offset="74%" stop-color="#F8DD7B"/>
            <stop offset="88%" stop-color="#B37E10"/>
            <stop offset="100%" stop-color="#C6972F"/>
        </linearGradient>
    </defs>
    <g fill="none" fill-rule="evenodd">
        <g>
            <mask id="c" fill="#fff">
                <use xlink:href="#a"/>
            </mask>
            <use fill="url(#b)" xlink:href="#a"/>
            <g mask="url(#c)" opacity=".08">
                <path fill="#00CF77" d="M97.64 130.484L.004 65.366 97.64.257l97.638 65.114z"/>
                <path fill="#009D57" d="M195.955 192.878l-98.92 65.08v-130.16l98.92-65.085z"/>
                <path fill="#00CF77" d="M98.445 257.962L0 192.877V62.717l98.445 65.082z"/>
            </g>
            <g mask="url(#c)" opacity=".8">
                <path fill="url(#d)" d="M45.815 79.646c0-5.811 1.017-8.48 2.27-5.966l.34.68c1.254 2.516 2.27 9.264 2.27 15.074v287.2c-.035 5.602-1.038 8.138-2.27 5.664l-.34-.678c-1.253-2.516-2.27-9.264-2.27-15.075zm-22.713-.298v287.197c0 5.811-1.016 12.56-2.27 15.075l-.34.678c-1.232 2.474-2.235-.062-2.27-5.664v-287.2c0-5.81 1.017-12.558 2.27-15.074l.34-.68c1.232-2.47 2.235.064 2.27 5.668zM36.664 6.91c0-5.81 1.016-8.478 2.27-5.964l.34.68c1.254 2.516 2.27 9.264 2.27 15.073V357.98c0 5.809-1.016 8.48-2.27 5.963l-.34-.68c-1.254-2.514-2.27-9.263-2.27-15.072zm-4.41 0v341.282c0 5.809-1.017 12.558-2.272 15.072l-.338.68c-1.254 2.516-2.271-.154-2.271-5.963V16.699c0-5.81 1.017-12.557 2.271-15.073l.338-.68c1.255-2.514 2.272.155 2.272 5.964z" transform="translate(63.682 -116)"/>
                <path fill="url(#e)" d="M55.134 129.31c0-8.832.957-12.888 2.137-9.064l.32 1.03c1.18 3.824 2.137 14.08 2.137 22.912V307.59c0 8.831-.957 12.887-2.138 9.066l-.319-1.033c-1.18-3.824-2.137-14.082-2.137-22.911zm-41.35 0v163.402c0 8.829-.957 19.087-2.138 22.911l-.32 1.033c-1.18 3.821-2.137-.235-2.137-9.066V144.188c0-8.832.957-19.088 2.137-22.912l.32-1.03c1.18-3.824 2.137.232 2.137 9.064zm50.539 72.768c0-8.788.957-12.829 2.138-9.022l.318 1.025c1.181 3.81 2.138 14.018 2.138 22.806v62.392c0 8.788-.957 12.829-2.138 9.023l-.318-1.029c-1.181-3.804-2.138-14.015-2.138-22.803zm-59.729 0v62.392c0 8.788-.956 19-2.138 22.803l-.318 1.029c-1.166 3.756-2.113-.13-2.138-8.678v-62.737c0-8.788.957-18.997 2.138-22.806l.318-1.025c1.182-3.807 2.138.234 2.138 9.022z" transform="translate(63.682 -116)"/>
            </g>
            <path fill="url(#f)" d="M58.236-36.652c.023-5.604.692-8.139 1.513-5.668l.226.68c.837 2.516 1.514 9.264 1.514 15.074v287.2c-.023 5.602-.692 8.138-1.514 5.664l-.226-.678c-.836-2.516-1.513-9.264-1.513-15.075zm-15.143 0v287.197c0 5.811-.677 12.56-1.513 15.075l-.226.678c-.836 2.518-1.514-.153-1.514-5.962V-26.566c0-5.81.678-12.558 1.514-15.074l.226-.68c.822-2.47 1.49.064 1.513 5.668zm9.042-72.438c0-5.81.677-8.478 1.514-5.964l.225.68c.837 2.516 1.514 9.264 1.514 15.073V241.98c0 5.809-.677 8.48-1.514 5.963l-.225-.68c-.837-2.514-1.514-9.263-1.514-15.072zm-2.94 0v341.282c0 5.809-.678 12.558-1.515 15.072l-.225.68c-.836 2.516-1.514-.154-1.514-5.963V-99.301c0-5.81.678-12.557 1.514-15.073l.225-.68c.837-2.514 1.515.155 1.515 5.964zM64.337 49.254c.023-5.603.692-8.138 1.513-5.666l.226.678c.836 2.516 1.514 9.264 1.514 15.075v107.81c-.023 5.603-.692 8.138-1.514 5.667l-.226-.68c-.836-2.516-1.514-9.265-1.514-15.074zm-27.345 0l.001 107.81c0 5.809-.678 12.558-1.514 15.074l-.226.68c-.836 2.514-1.514-.155-1.514-5.966V59.341c0-5.81.678-12.559 1.514-15.075l.226-.678c.822-2.472 1.49.063 1.513 5.666zm33.392 47.147c.023-5.602.692-8.138 1.513-5.666l.226.678c.836 2.518 1.514 9.266 1.514 15.075v41.538c-.024 5.602-.692 8.139-1.514 5.666l-.226-.68c-.836-2.514-1.514-9.264-1.514-15.073zm-39.438 0v41.538c0 5.81-.678 12.56-1.514 15.073l-.226.68c-.822 2.473-1.49-.064-1.513-5.666v-41.538c0-5.81.677-12.557 1.513-15.075l.226-.678c.822-2.472 1.49.064 1.514 5.666z" mask="url(#c)" opacity=".1" transform="rotate(-45 50.665 75.623)"/>
            <path fill="url(#f)" d="M153.241-36.652c.023-5.604.692-8.139 1.514-5.668l.225.68c.837 2.516 1.514 9.264 1.514 15.074v287.2c-.023 5.602-.692 8.138-1.514 5.664l-.225-.678c-.837-2.516-1.514-9.264-1.514-15.075zm-15.143 0l.001 287.197c0 5.811-.678 12.56-1.514 15.075l-.226.678c-.836 2.518-1.514-.153-1.514-5.962V-26.566c0-5.81.678-12.558 1.514-15.074l.226-.68c.822-2.47 1.49.064 1.513 5.668zm9.042-72.438c0-5.81.678-8.478 1.514-5.964l.226.68c.836 2.516 1.513 9.264 1.513 15.073V241.98c0 5.809-.677 8.48-1.513 5.963l-.226-.68c-.836-2.514-1.514-9.263-1.514-15.072zm-2.94 0v341.282c0 5.809-.678 12.558-1.514 15.072l-.226.68c-.836 2.516-1.514-.154-1.514-5.963V-99.301c0-5.81.678-12.557 1.514-15.073l.226-.68c.836-2.514 1.514.155 1.514 5.964zm15.142 158.344c.023-5.603.692-8.138 1.513-5.666l.226.678c.836 2.516 1.514 9.264 1.514 15.075v107.81c-.023 5.603-.692 8.138-1.514 5.667l-.226-.68c-.835-2.516-1.513-9.265-1.513-15.074zm-27.344 0v107.81c0 5.809-.678 12.558-1.514 15.074l-.226.68c-.836 2.514-1.514-.155-1.514-5.966V59.341c0-5.81.678-12.559 1.514-15.075l.226-.678c.822-2.472 1.49.063 1.514 5.666zm33.391 47.147c.023-5.602.692-8.138 1.514-5.666l.225.678c.836 2.518 1.514 9.266 1.514 15.075v41.538c-.023 5.602-.692 8.139-1.514 5.666l-.225-.68c-.837-2.514-1.515-9.264-1.515-15.073zm-39.438 0v41.538c0 5.81-.677 12.56-1.514 15.073l-.226.68c-.822 2.473-1.49-.064-1.513-5.666v-41.538c0-5.81.677-12.557 1.513-15.075l.226-.678c.822-2.472 1.49.064 1.514 5.666z" mask="url(#c)" opacity=".1" transform="rotate(45 145.67 75.623)"/>
            <path fill="url(#f)" d="M58.236 20.348c.023-5.604.692-8.139 1.513-5.668l.226.68c.837 2.516 1.514 9.264 1.514 15.074v287.2c-.023 5.602-.692 8.138-1.514 5.664l-.226-.678c-.836-2.516-1.513-9.264-1.513-15.075zm-15.143 0v287.197c0 5.811-.677 12.56-1.513 15.075l-.226.678c-.836 2.518-1.514-.153-1.514-5.962V30.434c0-5.81.678-12.558 1.514-15.074l.226-.68c.822-2.47 1.49.064 1.513 5.668zm9.042-72.438c0-5.81.677-8.478 1.514-5.964l.225.68c.837 2.516 1.514 9.264 1.514 15.073V298.98c0 5.809-.677 8.48-1.514 5.963l-.225-.68c-.837-2.514-1.514-9.263-1.514-15.072zm-2.94 0v341.282c0 5.809-.678 12.558-1.515 15.072l-.225.68c-.836 2.516-1.514-.154-1.514-5.963V-42.301c0-5.81.678-12.557 1.514-15.073l.225-.68c.837-2.514 1.515.155 1.515 5.964zm15.142 158.344c.023-5.603.692-8.138 1.513-5.666l.226.678c.836 2.516 1.514 9.264 1.514 15.075v107.81c-.023 5.603-.692 8.138-1.514 5.667l-.226-.68c-.836-2.516-1.514-9.265-1.514-15.074zm-27.345 0l.001 107.81c0 5.809-.678 12.558-1.514 15.074l-.226.68c-.836 2.514-1.514-.155-1.514-5.966V116.341c0-5.81.678-12.559 1.514-15.075l.226-.678c.822-2.472 1.49.063 1.513 5.666zm33.392 47.147c.023-5.602.692-8.138 1.513-5.666l.226.678c.836 2.518 1.514 9.266 1.514 15.075v41.538c-.024 5.602-.692 8.139-1.514 5.666l-.226-.68c-.836-2.514-1.514-9.264-1.514-15.073zm-39.438 0v41.538c0 5.81-.678 12.56-1.514 15.073l-.226.68c-.822 2.473-1.49-.064-1.513-5.666v-41.538c0-5.81.677-12.557 1.513-15.075l.226-.678c.822-2.472 1.49.064 1.514 5.666z" mask="url(#c)" opacity=".1" transform="scale(1 -1) rotate(-45 -269.516 0)"/>
            <path fill="url(#f)" d="M153.241 20.348c.023-5.604.692-8.139 1.514-5.668l.225.68c.837 2.516 1.514 9.264 1.514 15.074v287.2c-.023 5.602-.692 8.138-1.514 5.664l-.225-.678c-.837-2.516-1.514-9.264-1.514-15.075zm-15.143 0l.001 287.197c0 5.811-.678 12.56-1.514 15.075l-.226.678c-.836 2.518-1.514-.153-1.514-5.962V30.434c0-5.81.678-12.558 1.514-15.074l.226-.68c.822-2.47 1.49.064 1.513 5.668zm9.042-72.438c0-5.81.678-8.478 1.514-5.964l.226.68c.836 2.516 1.513 9.264 1.513 15.073V298.98c0 5.809-.677 8.48-1.513 5.963l-.226-.68c-.836-2.514-1.514-9.263-1.514-15.072zm-2.94 0v341.282c0 5.809-.678 12.558-1.514 15.072l-.226.68c-.836 2.516-1.514-.154-1.514-5.963V-42.301c0-5.81.678-12.557 1.514-15.073l.226-.68c.836-2.514 1.514.155 1.514 5.964zm15.142 158.344c.023-5.603.692-8.138 1.513-5.666l.226.678c.836 2.516 1.514 9.264 1.514 15.075v107.81c-.023 5.603-.692 8.138-1.514 5.667l-.226-.68c-.835-2.516-1.513-9.265-1.513-15.074zm-27.344 0v107.81c0 5.809-.678 12.558-1.514 15.074l-.226.68c-.836 2.514-1.514-.155-1.514-5.966V116.341c0-5.81.678-12.559 1.514-15.075l.226-.678c.822-2.472 1.49.063 1.514 5.666zm33.391 47.147c.023-5.602.692-8.138 1.514-5.666l.225.678c.836 2.518 1.514 9.266 1.514 15.075v41.538c-.023 5.602-.692 8.139-1.514 5.666l-.225-.68c-.837-2.514-1.515-9.264-1.515-15.073zm-39.438 0v41.538c0 5.81-.677 12.56-1.514 15.073l-.226.68c-.822 2.473-1.49-.064-1.513-5.666v-41.538c0-5.81.677-12.557 1.513-15.075l.226-.678c.822-2.472 1.49.064 1.514 5.666z" mask="url(#c)" opacity=".1" transform="scale(1 -1) rotate(45 465.85 0)"/>
            <g mask="url(#c)" opacity=".05">
                <path fill="#00CF77" d="M94.218 201.208L49.229 113.8c-1.82-3.537-1.592-9.717.51-13.8l43.967-85.424c2.102-4.085 5.283-4.528 7.104-.992l44.989 87.41c1.821 3.536 1.592 9.714-.51 13.8l-43.967 85.42c-2.103 4.087-5.283 4.53-7.104.993"/>
                <path fill="url(#g)" d="M46.218 191.209L1.229 103.802c-1.82-3.537-1.592-9.717.51-13.8L45.706 4.575C47.808.493 50.99.048 52.81 3.584l44.989 87.41c1.821 3.536 1.592 9.717-.51 13.802l-43.967 85.42c-2.103 4.084-5.283 4.53-7.104.993" transform="translate(48 10)"/>
                <path fill="#00CF77" d="M49.23 113.43l3.952 7.707 40.524-79.035c2.102-4.1 5.283-4.546 7.104-.994l41.037 80.031 3.442-6.711c2.102-4.101 2.331-10.306.51-13.856l-44.99-87.74c-1.82-3.552-5-3.106-7.103.994L49.74 99.576c-2.102 4.1-2.33 10.304-.51 13.854"/>
            </g>
        </g>
        <g fill-rule="nonzero">
            <path fill="url(#h)" d="M39.271 0s-6.383 21.096 5.043 48.415A133.835 133.835 0 0 1 39.27 0z" transform="translate(14 27)"/>
            <path fill="url(#i)" d="M32.872 3.439S28.46 24.55 42.144 50.194A129.255 129.255 0 0 1 32.872 3.44z" transform="translate(14 27)"/>
            <path fill="url(#j)" d="M27.215 7.364S24.638 28.31 40.301 52.157A125.01 125.01 0 0 1 27.215 7.364z" transform="translate(14 27)"/>
            <path fill="url(#k)" d="M22.237 11.729s-.878 20.625 16.476 42.574A120.574 120.574 0 0 1 22.237 11.73z" transform="translate(14 27)"/>
            <path fill="url(#l)" d="M17.832 16.476s.695 20.178 19.477 40.189a116.49 116.49 0 0 1-19.477-40.189z" transform="translate(14 27)"/>
            <path fill="url(#m)" d="M13.923 21.582s2.122 19.62 22.069 37.652a112.197 112.197 0 0 1-22.07-37.652z" transform="translate(14 27)"/>
            <path fill="url(#n)" d="M34.851 62.01a108.215 108.215 0 0 1-24.39-35.018s3.47 18.981 24.39 35.019z" transform="translate(14 27)"/>
            <path fill="url(#o)" d="M33.822 64.995A104.258 104.258 0 0 1 7.492 32.68s4.668 18.263 26.33 32.314z" transform="translate(14 27)"/>
            <path fill="url(#p)" d="M32.96 68.162A100.245 100.245 0 0 1 5.035 38.641s5.72 17.457 27.925 29.521z" transform="translate(14 27)"/>
            <path fill="url(#q)" d="M32.306 71.513A96.351 96.351 0 0 1 3 44.753s6.742 16.635 29.306 26.76z" transform="translate(14 27)"/>
            <path fill="url(#r)" d="M31.867 75.024A92.481 92.481 0 0 1 1.484 51.088S9.12 66.862 31.867 75.024z" transform="translate(14 27)"/>
            <path fill="url(#s)" d="M31.668 78.694A88.564 88.564 0 0 1 .487 57.534s8.425 14.889 31.18 21.16z" transform="translate(14 27)"/>
            <path fill="url(#t)" d="M31.747 82.508A84.798 84.798 0 0 1 0 64.117s9.128 13.97 31.747 18.391z" transform="translate(14 27)"/>
            <path fill="url(#u)" d="M32.122 86.434A81.04 81.04 0 0 1 .032 70.827s9.758 13.005 32.09 15.607z" transform="translate(14 27)"/>
            <path fill="url(#v)" d="M32.8 90.2S16.956 88.603.56 77.433c.023-.008 10.364 12 32.242 12.765z" transform="translate(14 27)"/>
            <path fill="url(#w)" d="M33.806 93.734s-15.367-.271-32.122-9.957c0 0 10.803 10.97 32.122 9.957z" transform="translate(14 27)"/>
            <path fill="url(#x)" d="M35.05 96.934S20.267 97.939 3.2 89.753c0-.016 11.25 9.933 31.85 7.18z" transform="translate(14 27)"/>
            <path fill="url(#y)" d="M36.535 99.782s-14.099 2.17-31.317-4.556c0 0 11.625 8.888 31.317 4.556z" transform="translate(14 27)"/>
            <path fill="url(#z)" d="M38.234 102.311s-13.316 3.192-30.55-2.058c0 0 11.816 7.867 30.55 2.058z" transform="translate(14 27)"/>
            <path fill="url(#A)" d="M40.149 104.577s-12.463 4.181-29.593.271c0 0 11.96 6.878 29.593-.27z" transform="translate(14 27)"/>
            <path fill="url(#B)" d="M42.311 107.234s-11.561 4.995-28.484 2.394c0-.008 12.016 5.928 28.484-2.394z" transform="translate(14 27)"/>
            <path fill="url(#C)" d="M44.689 110.059s-10.62 5.664-27.224 4.276c0 .032 11.984 5.083 27.224-4.276z" transform="translate(14 27)"/>
            <path fill="url(#D)" d="M47.266 112.691s-9.654 6.2-25.867 5.937c0 0 11.888 4.196 25.867-5.937z" transform="translate(14 27)"/>
            <path fill="url(#E)" d="M50.035 115.053s-8.681 6.599-24.431 7.357c.016 0 11.736 3.486 24.43-7.357z" transform="translate(14 27)"/>
            <path fill="url(#F)" d="M53.003 117.184s-7.732 6.877-22.955 8.545c0 0 11.53 2.816 22.955-8.545z" transform="translate(14 27)"/>
            <path fill="url(#G)" d="M56.146 119.098s-6.798 7.038-21.462 9.527c0 0 11.29 2.178 21.462-9.527z" transform="translate(14 27)"/>
            <path fill="url(#H)" d="M59.473 120.79s-5.904 7.101-19.946 10.3c-.024 0 10.994 1.676 19.946-10.3z" transform="translate(14 27)"/>
            <path fill="url(#I)" d="M62.96 122.274s-5.05 7.053-18.51 10.875c0 0 10.739 1.213 18.51-10.875z" transform="translate(14 27)"/>
            <path fill="url(#J)" d="M66.606 123.543s-4.284 6.925-17.05 11.25c0 0 10.372.845 17.05-11.25z" transform="translate(14 27)"/>
            <path fill="url(#K)" d="M70.38 124.556s-3.502 6.718-15.71 11.53c0 0 10.141.47 15.71-11.53z" transform="translate(14 27)"/>
            <path fill="url(#L)" d="M59.928 136.97s9.838.168 14.362-11.64c0 0-2.817 6.439-14.362 11.64z" transform="translate(14 27)"/>
            <g>
                <path fill="url(#h)" d="M39.271 0s-6.383 21.096 5.043 48.415A133.835 133.835 0 0 1 39.27 0z" transform="matrix(-1 0 0 1 182 27)"/>
                <path fill="url(#i)" d="M32.872 3.439S28.46 24.55 42.144 50.194A129.255 129.255 0 0 1 32.872 3.44z" transform="matrix(-1 0 0 1 182 27)"/>
                <path fill="url(#j)" d="M27.215 7.364S24.638 28.31 40.301 52.157A125.01 125.01 0 0 1 27.215 7.364z" transform="matrix(-1 0 0 1 182 27)"/>
                <path fill="url(#k)" d="M22.237 11.729s-.878 20.625 16.476 42.574A120.574 120.574 0 0 1 22.237 11.73z" transform="matrix(-1 0 0 1 182 27)"/>
                <path fill="url(#l)" d="M17.832 16.476s.695 20.178 19.477 40.189a116.49 116.49 0 0 1-19.477-40.189z" transform="matrix(-1 0 0 1 182 27)"/>
                <path fill="url(#m)" d="M13.923 21.582s2.122 19.62 22.069 37.652a112.197 112.197 0 0 1-22.07-37.652z" transform="matrix(-1 0 0 1 182 27)"/>
                <path fill="url(#n)" d="M34.851 62.01a108.215 108.215 0 0 1-24.39-35.018s3.47 18.981 24.39 35.019z" transform="matrix(-1 0 0 1 182 27)"/>
                <path fill="url(#o)" d="M33.822 64.995A104.258 104.258 0 0 1 7.492 32.68s4.668 18.263 26.33 32.314z" transform="matrix(-1 0 0 1 182 27)"/>
                <path fill="url(#p)" d="M32.96 68.162A100.245 100.245 0 0 1 5.035 38.641s5.72 17.457 27.925 29.521z" transform="matrix(-1 0 0 1 182 27)"/>
                <path fill="url(#q)" d="M32.306 71.513A96.351 96.351 0 0 1 3 44.753s6.742 16.635 29.306 26.76z" transform="matrix(-1 0 0 1 182 27)"/>
                <path fill="url(#r)" d="M31.867 75.024A92.481 92.481 0 0 1 1.484 51.088S9.12 66.862 31.867 75.024z" transform="matrix(-1 0 0 1 182 27)"/>
                <path fill="url(#s)" d="M31.668 78.694A88.564 88.564 0 0 1 .487 57.534s8.425 14.889 31.18 21.16z" transform="matrix(-1 0 0 1 182 27)"/>
                <path fill="url(#t)" d="M31.747 82.508A84.798 84.798 0 0 1 0 64.117s9.128 13.97 31.747 18.391z" transform="matrix(-1 0 0 1 182 27)"/>
                <path fill="url(#u)" d="M32.122 86.434A81.04 81.04 0 0 1 .032 70.827s9.758 13.005 32.09 15.607z" transform="matrix(-1 0 0 1 182 27)"/>
                <path fill="url(#v)" d="M32.8 90.2S16.956 88.603.56 77.433c.023-.008 10.364 12 32.242 12.765z" transform="matrix(-1 0 0 1 182 27)"/>
                <path fill="url(#w)" d="M33.806 93.734s-15.367-.271-32.122-9.957c0 0 10.803 10.97 32.122 9.957z" transform="matrix(-1 0 0 1 182 27)"/>
                <path fill="url(#x)" d="M35.05 96.934S20.267 97.939 3.2 89.753c0-.016 11.25 9.933 31.85 7.18z" transform="matrix(-1 0 0 1 182 27)"/>
                <path fill="url(#y)" d="M36.535 99.782s-14.099 2.17-31.317-4.556c0 0 11.625 8.888 31.317 4.556z" transform="matrix(-1 0 0 1 182 27)"/>
                <path fill="url(#z)" d="M38.234 102.311s-13.316 3.192-30.55-2.058c0 0 11.816 7.867 30.55 2.058z" transform="matrix(-1 0 0 1 182 27)"/>
                <path fill="url(#A)" d="M40.149 104.577s-12.463 4.181-29.593.271c0 0 11.96 6.878 29.593-.27z" transform="matrix(-1 0 0 1 182 27)"/>
                <path fill="url(#B)" d="M42.311 107.234s-11.561 4.995-28.484 2.394c0-.008 12.016 5.928 28.484-2.394z" transform="matrix(-1 0 0 1 182 27)"/>
                <path fill="url(#C)" d="M44.689 110.059s-10.62 5.664-27.224 4.276c0 .032 11.984 5.083 27.224-4.276z" transform="matrix(-1 0 0 1 182 27)"/>
                <path fill="url(#D)" d="M47.266 112.691s-9.654 6.2-25.867 5.937c0 0 11.888 4.196 25.867-5.937z" transform="matrix(-1 0 0 1 182 27)"/>
                <path fill="url(#E)" d="M50.035 115.053s-8.681 6.599-24.431 7.357c.016 0 11.736 3.486 24.43-7.357z" transform="matrix(-1 0 0 1 182 27)"/>
                <path fill="url(#F)" d="M53.003 117.184s-7.732 6.877-22.955 8.545c0 0 11.53 2.816 22.955-8.545z" transform="matrix(-1 0 0 1 182 27)"/>
                <path fill="url(#G)" d="M56.146 119.098s-6.798 7.038-21.462 9.527c0 0 11.29 2.178 21.462-9.527z" transform="matrix(-1 0 0 1 182 27)"/>
                <path fill="url(#H)" d="M59.473 120.79s-5.904 7.101-19.946 10.3c-.024 0 10.994 1.676 19.946-10.3z" transform="matrix(-1 0 0 1 182 27)"/>
                <path fill="url(#I)" d="M62.96 122.274s-5.05 7.053-18.51 10.875c0 0 10.739 1.213 18.51-10.875z" transform="matrix(-1 0 0 1 182 27)"/>
                <path fill="url(#J)" d="M66.606 123.543s-4.284 6.925-17.05 11.25c0 0 10.372.845 17.05-11.25z" transform="matrix(-1 0 0 1 182 27)"/>
                <path fill="url(#K)" d="M70.38 124.556s-3.502 6.718-15.71 11.53c0 0 10.141.47 15.71-11.53z" transform="matrix(-1 0 0 1 182 27)"/>
                <path fill="url(#L)" d="M59.928 136.97s9.838.168 14.362-11.64c0 0-2.817 6.439-14.362 11.64z" transform="matrix(-1 0 0 1 182 27)"/>
            </g>
        </g>
        <g fill-rule="nonzero">
            <path fill="url(#M)" d="M99.721 49.864c0 27.54-22.11 49.864-49.384 49.864C23.062 99.728.952 77.403.952 49.864.952 22.324 23.062 0 50.337 0 77.61 0 99.72 22.325 99.72 49.864z" transform="translate(48 59)"/>
            <path fill="url(#N)" d="M50.337 94.631c-17.938 0-34.109-10.91-40.972-27.644-6.863-16.733-3.067-35.993 9.617-48.798 12.685-12.805 31.761-16.634 48.332-9.7 16.57 6.934 27.373 23.264 27.369 41.375-.027 24.717-19.867 44.746-44.346 44.767z" transform="translate(48 59)"/>
            <path fill="url(#O)" d="M71.702 85.922c-19.42 12.262-44.97 6.784-57.779-12.388a34.56 34.56 0 0 1-.798-1.233C.675 52.21 6.712 25.731 26.611 13.161 46.509.588 72.732 6.684 85.183 26.776l.74 1.252c11.488 20.014 5.198 45.62-14.221 57.893zM27.01 13.816C7.49 26.176 1.567 52.159 13.77 71.893c.268.447.528.835.778 1.214 12.63 18.681 37.614 23.964 56.607 11.97 18.993-11.994 25.222-36.988 14.114-56.63a41.278 41.278 0 0 0-.73-1.224C72.304 7.5 46.566 1.501 27.008 13.816z" transform="translate(48 59)"/>
            <path fill="url(#P)" d="M70.288 83.65C52.074 95.134 28.123 89.982 16.125 72c-.24-.36-.49-.738-.75-1.155-10.122-16.379-7.299-37.707 6.728-50.827C36.13 6.898 57.407 5.685 72.808 17.126l.384.291-2.077 1.816-.24-.175C56.445 8.593 36.701 9.893 23.74 22.162c-12.961 12.27-15.519 32.08-6.105 47.294.25.398.47.738.702 1.078 9.932 14.863 28.885 20.563 45.253 13.61 16.368-6.954 25.585-24.62 22.006-42.183l-.173-.786-.067-.31 2.057-.904.106.233.385-.097c4.015 16.83-3.075 34.367-17.606 43.553h-.01zM28.423 16.087C10.16 27.664 4.612 51.978 16.02 70.457c.26.407.49.776.731 1.126C27.273 87.307 47.389 93.245 64.643 85.72c17.255-7.524 26.766-26.38 22.645-44.896l-1.067.466c0 .165.077.33.106.486 3.667 17.926-5.734 35.968-22.442 43.07-16.708 7.102-36.058 1.281-46.193-13.896-.23-.35-.461-.708-.702-1.106-9.618-15.484-7.064-35.672 6.1-48.217C36.254 9.082 56.36 7.673 71.115 18.262l.904-.767a38.605 38.605 0 0 0-43.596-1.408z" transform="translate(48 59)"/>
            <path fill="url(#Q)" d="M68.279 80.398C51.802 90.824 30.105 86.176 19.24 69.893c-.23-.34-.442-.67-.673-1.048-9.481-15.315-6.406-35.334 7.224-47.03a35.786 35.786 0 0 1 47.132.389l-.5.573a35.032 35.032 0 0 0-46.153-.36C12.93 33.88 9.937 53.49 19.24 68.476c.222.369.433.689.654 1.02 9.74 14.566 28.544 19.788 44.293 12.3 15.748-7.488 23.739-25.45 18.823-42.31l.72-.224c4.583 15.668-1.735 32.5-15.451 41.165v-.029z" transform="translate(48 59)"/>
            <path fill="url(#R)" d="M67.27 78.777c-15.608 9.849-36.138 5.44-46.424-9.971-.221-.33-.423-.641-.644-.971-9.092-14.85-5.763-34.216 7.752-45.104 13.516-10.888 32.957-9.864 45.277 2.386l-.539.543c-12.033-12.074-31.12-13.12-44.377-2.43-13.257 10.69-16.469 29.716-7.469 44.236.212.35.404.65.625.97 9.44 14.139 27.849 18.935 42.886 11.175 15.037-7.76 21.97-25.633 16.153-41.64l.711-.262c5.535 15.298-.282 32.42-13.952 41.068z" transform="translate(48 59)"/>
            <path fill="url(#S)" d="M66.308 77.155c-14.739 9.312-34.134 5.156-43.856-9.398l-.606-.97c-8.959-14.488-5.313-33.503 8.353-43.568 13.666-10.065 32.711-7.762 43.638 5.276l-.587.495c-10.676-12.704-29.252-14.937-42.583-5.117-13.331 9.819-16.898 28.362-8.177 42.506.202.33.385.611.597.97C32.29 81.07 50.383 85.356 64.669 77.2c14.287-8.155 19.978-26.018 13.081-41.054l.683-.33c6.865 14.895 1.666 32.621-12.125 41.34z" transform="translate(48 59)"/>
            <path fill="url(#T)" d="M65.26 75.524c-13.866 8.77-32.122 4.862-41.27-8.835l-.577-.883c-8.05-13.053-5.307-30.106 6.424-39.913l.48.592c-11.434 9.563-14.108 26.188-6.26 38.913.193.301.356.563.558.864C33.517 79.7 51.387 83.554 64.95 74.96c13.561-8.593 17.895-26.518 9.782-40.455-.144-.262-.308-.524-.481-.816-7.822-12.466-23.443-17.368-36.885-11.572l-.298-.7c13.778-6.013 29.84-.974 37.818 11.865.192.3.346.572.5.835 8.254 14.298 3.771 32.63-10.125 41.407z" transform="translate(48 59)"/>
            <path fill="url(#U)" d="M64.385 73.961c-13.001 8.217-30.112 4.555-38.693-8.281l-.538-.835a28.98 28.98 0 0 1-1.009-28.722c4.77-9.068 13.967-14.878 24.13-15.242 10.162-.364 19.745 4.774 25.138 13.478l.462.777c7.742 13.409 3.54 30.602-9.49 38.835v-.01zM34.577 25.883c-12.954 8.209-16.885 25.454-8.789 38.554.174.281.327.524.53.806 8.326 12.585 25.059 16.196 37.753 8.147 12.695-8.049 16.742-24.836 9.13-37.875a16.826 16.826 0 0 0-.441-.748c-8.126-13.083-25.206-17.057-38.183-8.884z" transform="translate(48 59)"/>
            <path fill="url(#V)" d="M63.25 72.282c-11.466 7.246-26.493 4.638-34.904-6.059l.596-.475C37.366 76.43 52.53 78.736 63.695 71.03c11.166-7.705 14.546-22.808 7.747-34.613-.125-.223-.26-.456-.413-.699-7.172-11.928-22.378-16.034-34.49-9.313-12.112 6.72-16.83 21.883-10.702 34.391l-.683.33c-6.076-12.831-1.177-28.22 11.164-35.074 12.342-6.855 27.837-2.793 35.317 9.259.153.252.298.495.423.718 7.23 12.514 3.314 28.563-8.846 36.253h.038z" transform="translate(48 59)"/>
            <path fill="url(#W)" d="M73.096 55.515c-1.952 7.947-7.647 14.42-15.234 17.313a24.482 24.482 0 0 1-22.766-2.818 18.78 18.78 0 0 1-1.654-1.272l.673-.427c.548.446 1.106.873 1.683 1.262a23.738 23.738 0 0 0 29.706-2.426c8.13-7.702 9.912-20.055 4.294-29.778l-.375-.631c-5.888-9.527-17.506-13.694-28.027-10.054-10.521 3.64-17.166 14.126-16.03 25.297v.436l.057.408-.702.437a2.841 2.841 0 0 1-.058-.398l-.057-.427c-1.335-11.571 5.45-22.531 16.336-26.389 10.886-3.858 22.967.417 29.087 10.292.144.233.27.446.384.65a25.034 25.034 0 0 1 2.683 18.525z" transform="translate(48 59)"/>
            <path fill="url(#X)" d="M71.26 55.058c-1.796 7.31-7.021 13.271-13.99 15.958a22.603 22.603 0 0 1-20.962-2.482l.432-.631a21.555 21.555 0 0 0 7.818 3.369c8.526 1.838 17.324-1.578 22.432-8.712 5.109-7.134 5.565-16.64 1.164-24.24l-.337-.572c-5.331-8.61-15.764-12.477-25.346-9.393-9.582 3.084-15.875 12.333-15.288 22.47v.864l-.712.457a2.94 2.94 0 0 1 0-.418c0-.145 0-.291-.048-.446-.8-10.552 5.637-20.292 15.593-23.596 9.957-3.304 20.861.68 26.417 9.654.125.213.24.408.346.602a23.125 23.125 0 0 1 2.48 17.116z" transform="translate(48 59)"/>
            <path fill="url(#Y)" d="M24.416 12.598l5.14-.023-.01 1.956-5.138.022z" transform="rotate(-32.04 153.725 -40.524)"/>
            <path fill="url(#Z)" d="M29.844 21.406l5.139-.022-.008 1.955-5.14.023z" transform="rotate(-32.03 159.186 -31.743)"/>
            <path fill="url(#aa)" d="M28.646 19.418l5.14-.023-.01 1.956-5.138.023z" transform="rotate(-32.04 157.955 -33.703)"/>
            <path fill="url(#ab)" d="M77.777 29.083l5.14-.023-.023 5.074-5.139.022z" transform="rotate(-32.03 207.113 -22.507)"/>
            <path fill="url(#ac)" d="M28.885 59.789l5.139-.023-.009 1.956-5.139.023z" transform="rotate(-32.03 158.227 6.64)"/>
            <path fill="url(#ad)" d="M27.32 57.268l5.14-.023-.01 1.956-5.138.023z" transform="rotate(-32.03 156.663 4.12)"/>
            <path fill="url(#ae)" d="M25.775 54.737l5.139-.022-.009 1.956-5.139.022z" transform="rotate(-32.03 155.117 1.589)"/>
            <path fill="url(#af)" d="M38.798 67.67l-3 1.903-.702.437-.644.407-1.039-1.66.03-.02.672-.426 3.645-2.301z" transform="translate(48 59)"/>
            <path fill="url(#ag)" d="M31.964 64.776l5.139-.023-.009 1.956-5.139.023z" transform="rotate(-32.03 161.306 11.627)"/>
            <path fill="url(#ah)" d="M30.418 62.226l5.14-.023-.01 1.956-5.138.023z" transform="rotate(-32.03 159.76 9.077)"/>
            <path fill="url(#ai)" d="M18.549 17.053l5.147-.025-.01 1.953-5.146.024z" transform="rotate(-42.04 121.888 -14.94)"/>
            <path fill="url(#aj)" d="M13.522 22.53l5.156-.024-.009 1.95-5.156.024z" transform="rotate(-52.04 100.526 3.83)"/>
            <path fill="url(#ak)" d="M9.522 28.724l5.164-.02-.008 1.946-5.164.02z" transform="rotate(-62.04 85.157 19.276)"/>
            <path fill="url(#al)" d="M6.639 35.52l5.17-.015-.006 1.945-5.17.014z" transform="rotate(-72.04 73.794 32.976)"/>
            <path fill="url(#am)" d="M5 42.795l5.174-.007-.002 1.943-5.174.006z" transform="rotate(-82.03 65.504 45.668)"/>
            <path fill="url(#an)" d="M6.203 48.552h1.943l-.002 5.174H6.202z" transform="rotate(-2.03 1696.246 -1273.997)"/>
            <path fill="url(#ao)" d="M7.094 55.913l1.943-.004-.01 5.172-1.943.004z" transform="rotate(-12.03 312.029 -139.774)"/>
            <path fill="url(#ap)" d="M9.236 63.03l1.945-.007-.017 5.168-1.945.006z" transform="rotate(-22.03 185.753 -28.187)"/>
            <path fill="url(#aq)" d="M12.587 69.605l1.947-.009-.022 5.161-1.948.009z" transform="rotate(-32.03 140.326 18.066)"/>
            <path fill="url(#ar)" d="M16.997 75.547l1.95-.01-.024 5.153-1.95.009z" transform="rotate(-42.03 118.75 45.145)"/>
            <path fill="url(#as)" d="M22.358 80.633l1.954-.01-.024 5.145-1.954.009z" transform="rotate(-52.03 107.767 63.526)"/>
            <path fill="url(#at)" d="M28.522 84.699l1.957-.008-.021 5.136-1.957.008z" transform="rotate(-62.03 102.557 76.844)"/>
            <path fill="url(#au)" d="M35.274 87.56l1.96-.006-.015 5.13-1.96.005z" transform="rotate(-72.04 100.82 86.613)"/>
            <path fill="url(#av)" d="M42.446 89.267l1.96-.002-.007 5.126-1.96.002z" transform="rotate(-82.02 101.346 93.73)"/>
            <path fill="url(#aw)" d="M48.201 91.2l5.125-.001v1.961l-5.126.002z" transform="rotate(-2.04 1731.672 -1226.313)"/>
            <path fill="url(#ax)" d="M55.498 90.278l5.127-.01-.004 1.96-5.127.01z" transform="rotate(-12.02 362.263 -107.209)"/>
            <path fill="url(#ay)" d="M62.488 88.155l5.132-.017-.006 1.959-5.132.017z" transform="rotate(-22.03 240.603 -4.67)"/>
            <path fill="url(#az)" d="M69.032 84.822l5.139-.022-.009 1.956-5.139.022z" transform="rotate(-32.02 198.408 31.646)"/>
            <path fill="url(#aA)" d="M74.901 80.328l5.147-.024-.009 1.952-5.147.025z" transform="rotate(-42.03 178.26 48.32)"/>
            <path fill="url(#aB)" d="M79.91 74.969l5.157-.024-.01 1.949-5.155.024z" transform="rotate(-52.01 166.955 56.235)"/>
            <path fill="url(#aC)" d="M75.939 71.874l5.156-.024-.01 1.95-5.155.024z" transform="rotate(-52.03 162.956 53.162)"/>
            <path fill="url(#aD)" d="M71.713 68.148l5.156-.024-.01 1.95-5.155.023z" transform="rotate(-52.02 158.744 49.425)"/>
            <path fill="url(#aE)" d="M67.27 64.6l5.156-.024-.009 1.949-5.156.024z" transform="rotate(-52.02 154.301 45.877)"/>
            <path fill="url(#aF)" d="M83.914 68.735l5.164-.021-.008 1.946-5.163.021z" transform="rotate(-62.03 159.56 59.278)"/>
            <path fill="url(#aG)" d="M86.787 61.887l5.17-.014-.005 1.944-5.17.014z" transform="rotate(-72.03 153.95 59.337)"/>
            <path fill="url(#aH)" d="M91.625 58.31l.712-5.126-1.924-.262-.72 5.117z" transform="translate(48 59)"/>
            <path fill="url(#aI)" d="M90.47 45.587h1.943l-.002 5.174-1.942.001z" transform="rotate(-2.02 1788.758 -1283.668)"/>
            <path fill="url(#aJ)" d="M89.536 38.28l1.943-.003-.01 5.172-1.943.004z" transform="rotate(-12.03 394.471 -157.406)"/>
            <path fill="url(#aK)" d="M79.109 47.015l1.947-.002-.003 5.188h-1.948z" transform="rotate(-4.004 947.97 -607.446)"/>
            <path fill="url(#aL)" d="M87.387 31.201l1.944-.007-.017 5.168-1.945.007z" transform="rotate(-22.03 263.903 -60.015)"/>
            <path fill="url(#aM)" d="M84.069 24.61l1.947-.008-.022 5.16-1.948.009z" transform="rotate(-32.03 211.808 -26.929)"/>
            <path fill="url(#aN)" d="M79.66 18.613l1.951-.009-.025 5.153-1.95.009z" transform="rotate(-42.03 181.413 -11.788)"/>
            <path fill="url(#aO)" d="M74.296 13.632l1.954-.009-.025 5.144-1.954.01z" transform="rotate(-52.03 159.704 -3.475)"/>
            <path fill="url(#aP)" d="M68.127 9.524l1.957-.008-.02 5.136-1.958.008z" transform="rotate(-62.03 142.162 1.669)"/>
            <path fill="url(#aQ)" d="M61.374 6.663l1.959-.006-.015 5.13-1.96.006z" transform="rotate(-72.02 126.934 5.704)"/>
            <path fill="url(#aR)" d="M54.196 4.982l1.96-.002-.006 5.126-1.96.002z" transform="rotate(-82.03 113.091 9.45)"/>
            <path fill="url(#aS)" d="M50.375 6.078l-5.125.184.067 1.961 5.125-.184z" transform="translate(48 59)"/>
            <path fill="url(#aT)" d="M39.124 7.34l5.139-.01-.004 1.964-5.139.01z" transform="rotate(-12.095 344.15 -188.726)"/>
            <path fill="url(#aU)" d="M30.966 9.246l5.132-.017-.007 1.959-5.132.017z" transform="rotate(-22.03 209.08 -83.58)"/>
            <path fill="url(#aV)" d="M41.308 64.932l-4.981 3.146" transform="translate(48 59)"/>
            <path fill="url(#aW)" d="M43.702 63.816l-7.173 4.592-.404-.65 7.173-4.593z" transform="translate(48 59)"/>
            <path fill="url(#aX)" d="M39.75 62.417l-7.5 4.738" transform="translate(48 59)"/>
            <path fill="url(#aY)" d="M42.433 61.301l-9.99 6.175-.395-.65 9.98-6.176z" transform="translate(48 59)"/>
            <path fill="url(#aZ)" d="M38.212 59.942l-9.568 6.048" transform="translate(48 59)"/>
            <path fill="url(#ba)" d="M40.144 59.165l-11.596 7.272-.404-.65 11.606-7.272z" transform="translate(48 59)"/>
            <path fill="url(#bb)" d="M36.663 57.437l-11.307 7.146" transform="translate(48 59)"/>
            <path fill="url(#bc)" d="M38.644 56.69l-13.096 8.213-.394-.65 13.086-8.214z" transform="translate(48 59)"/>
            <path fill="url(#bd)" d="M35.096 54.922l-9.538 6.02" transform="translate(48 59)"/>
            <path fill="url(#be)" d="M37.067 54.126l-11.72 7.204-.395-.65 11.711-7.204z" transform="translate(48 59)"/>
            <path fill="url(#bf)" d="M33.538 52.398l-7.5 4.738" transform="translate(48 59)"/>
            <path fill="url(#bg)" d="M35.308 51.718l-8.866 5.534-.404-.65 8.866-5.534z" transform="translate(48 59)"/>
            <path fill="url(#bh)" d="M27.25 51.69l-.712.456-1.076.68-.702.436a2.841 2.841 0 0 1-.058-.398l-.058-.427.721-.447 1.087-.699.73-.456v.447c.04.126.049.271.068.407z" transform="translate(48 59)"/>
            <path fill="url(#bi)" d="M31.981 49.883l-3.75 2.369" transform="translate(48 59)"/>
            <path fill="url(#bj)" d="M83.673 39.573l-.606-.466 1.452-1.923 4.193-2.66.403.65-4.077 2.583z" transform="translate(48 59)"/>
            <path fill="url(#bk)" d="M81.192 37.99l-.654-.378 1.27-2.224 5.346-3.378.404.65-5.183 3.272z" transform="translate(48 59)"/>
            <path fill="url(#bl)" d="M78.49 36.36l-.673-.35 1.135-2.253 7.27-4.592.393.65-7.086 4.476z" transform="translate(48 59)"/>
            <path fill="url(#bm)" d="M84.471 27.68l-8.202 5.184-2.51-.243.078-.767 2.25.224 7.98-5.049z" transform="translate(48 59)"/>
            <path fill="url(#bn)" d="M83.26 24.951l-7.03 4.437-2.75-.242.058-.758 2.51.214 6.808-4.301z" transform="translate(48 59)"/>
            <path fill="url(#bo)" d="M81.356 22.65L75.97 26.05l-3.048-.32.077-.758 2.788.291L80.952 22z" transform="translate(48 59)"/>
            <path fill="url(#bp)" d="M79.788 20.136l-4.278 2.699-3.097-.204.049-.767 2.846.194 4.077-2.573z" transform="translate(48 59)"/>
            <path fill="url(#bq)" d="M38.115 23.214l-1.913-3.088" transform="translate(48 59)"/>
            <path fill="url(#br)" d="M36.79 19.862l.762-.003-.015 3.63-.762.004z" transform="rotate(-32.01 164.008 -32.495)"/>
            <path fill="url(#bs)" d="M31.019 27.699l-1.913-3.087" transform="translate(48 59)"/>
            <path fill="url(#bt)" d="M29.686 24.338l.762-.004-.016 3.631-.761.004z" transform="rotate(-32.03 156.837 -27.964)"/>
            <g transform="translate(48 59)">
                <use fill="#000" filter="url(#bu)" xlink:href="#bv"/>
                <path fill="url(#bx)" fill-rule="evenodd" stroke="url(#bw)" d="M59.332 32.864l.887-.389.372-.152a9.99 9.99 0 0 1 3.632-.675l.361.006c1.602.06 3.172.505 4.571 1.299l.115.07.269.157c2.907 1.771 4.684 4.902 4.684 8.269l-.006.316c-.103 3.026-1.647 5.849-4.162 7.602l-.79.549.798.553.26.188c2.45 1.838 3.9 4.708 3.9 7.734v.177l-.006.315c-.114 3.342-1.985 6.414-4.921 8.08l-.148.087-.317.172a10.066 10.066 0 0 1-4.627 1.126l-.409-.009a9.966 9.966 0 0 1-3.6-.828l-.87-.382-.111.928-.042.308a9.758 9.758 0 0 1-4.645 6.868l-.238.14-.326.187a9.982 9.982 0 0 1-4.79 1.217l-.362-.006a9.965 9.965 0 0 1-4.548-1.284l-.083-.044-.27-.16c-2.566-1.575-4.274-4.252-4.595-7.218l-.1-.93-.886.385-.372.153c-1.16.447-2.379.675-3.635.675l-.362-.007a10.029 10.029 0 0 1-4.576-1.295l-.129-.078-.275-.162c-2.891-1.77-4.662-4.898-4.662-8.255l.005-.316c.104-3.026 1.648-5.846 4.166-7.606l.787-.55-.794-.553-.259-.187c-2.453-1.835-3.905-4.706-3.905-7.734v-.173l.005-.316c.114-3.342 1.986-6.418 4.935-8.09l.152-.085.315-.17c1.417-.736 3-1.124 4.611-1.123l.409.008c1.25.05 2.46.33 3.605.833l.867.379.114-.93.042-.308c.436-2.838 2.156-5.382 4.642-6.866l.247-.147.322-.183a10.046 10.046 0 0 1 4.73-1.211h.118l.383.01c1.58.07 3.118.51 4.43 1.264l.096.046.273.16c2.584 1.583 4.294 4.258 4.615 7.23l.103.931zm-8.374-3.084a3.64 3.64 0 0 0-3.457.144l-.224.133-.176.112c-.969.658-1.563 1.757-1.563 2.901v4.501l-5.359 3.042-.247-.14-3.79-2.157-.2-.105a3.672 3.672 0 0 0-3.39.087l-.146.09-.183.111a3.514 3.514 0 0 0-1.624 2.941v.15l.006.21a3.513 3.513 0 0 0 1.79 2.845l4.144 2.353.036 6.08-.25.146-3.955 2.299-.18.112c-.992.656-1.591 1.757-1.591 2.91l.006.21a3.526 3.526 0 0 0 1.8 2.852l.12.073.2.105a3.671 3.671 0 0 0 3.403-.098l4.051-2.305 5.36 3.047v.29l-.001 4.306.006.21c.068 1.177.746 2.259 1.807 2.86l.02.014.205.108a3.66 3.66 0 0 0 3.468-.14l.225-.136.176-.11a3.524 3.524 0 0 0 1.557-2.901v-4.501l5.359-3.047.247.14 3.79 2.157.2.105a3.682 3.682 0 0 0 3.405-.093l.135-.08.184-.11a3.517 3.517 0 0 0 1.619-2.941v-.155l-.006-.21a3.513 3.513 0 0 0-1.785-2.844l-4.149-2.353-.035-6.082.25-.145 3.959-2.299.18-.111c.986-.652 1.586-1.756 1.586-2.906l-.006-.211a3.53 3.53 0 0 0-1.803-2.86l-.107-.068-.2-.105a3.689 3.689 0 0 0-3.412.097l-4.052 2.305-5.36-3.042v-.29l.001-4.306-.006-.211a3.511 3.511 0 0 0-1.778-2.847l-.05-.026-.21-.111zM39.217 45.586l8.906 5.049V60.76l-8.906-5.056v-10.12zm20.106 0v10.12l-8.906 5.055V50.635l8.906-5.05zm-10.053-7.01l8.92 5.064-8.92 5.056-8.92-5.056 8.92-5.064z"/>
            </g>
        </g>
        <g fill="#FFF" transform="translate(46.691 55.916)">
            <ellipse cx="87.219" cy="82.835" filter="url(#by)" rx="8.069" ry="8.076"/>
            <ellipse cx="36.219" cy="8.835" filter="url(#bz)" rx="8.069" ry="8.076"/>
            <ellipse cx="4.995" cy="55.147" filter="url(#bA)" rx="4.995" ry="4.999"/>
            <ellipse cx="40.344" cy="8.999" filter="url(#bB)" rx="4.995" ry="4.999"/>
        </g>
        <g fill-rule="nonzero">
            <path fill="url(#bC)" d="M31.1 9.275c-.415.03-.727.374-.7.772a.816.816 0 0 0 .249.591 45.756 45.756 0 0 1-2.38 2.822 37.848 37.848 0 0 1-3.23 3.106 116.195 116.195 0 0 1-1.317-10.229.828.828 0 0 0 .834-.404.755.755 0 0 0-.109-.888.843.843 0 0 0-.908-.21.782.782 0 0 0-.52.743.81.81 0 0 0 .264.595 53.927 53.927 0 0 1-1.893 3.575 49.357 49.357 0 0 1-2.182 3.44 160.662 160.662 0 0 1-1.571-5.799c-.407-1.644-.986-4.299-1.293-5.715a.757.757 0 0 0 .486-.736.664.664 0 0 0-.315-.668.733.733 0 0 0-.766 0 .664.664 0 0 0-.315.668.757.757 0 0 0 .487.736c-.307 1.419-.886 4.071-1.294 5.715a141.378 141.378 0 0 1-1.57 5.798 48.187 48.187 0 0 1-2.182-3.439 53.248 53.248 0 0 1-1.852-3.487c.24-.15.38-.409.373-.683a.664.664 0 0 0-.315-.668.733.733 0 0 0-.766 0A.664.664 0 0 0 8 5.578a.76.76 0 0 0 .529.759 116.59 116.59 0 0 1-1.32 10.252 37.848 37.848 0 0 1-3.229-3.106 40.879 40.879 0 0 1-2.38-2.817.8.8 0 0 0 .246-.586.7.7 0 0 0-.767-.574.686.686 0 0 0-.637.704.693.693 0 0 0 .864.62c.265 1.24.498 2.565.714 3.976.265 1.638.437 3.188.577 4.637h27.052c.14-1.449.325-2.999.576-4.637a78.1 78.1 0 0 1 .717-3.986.551.551 0 0 0 .159.023.793.793 0 0 0 .694-.772.793.793 0 0 0-.694-.773v-.023z" transform="translate(82 34)"/>
            <path fill="url(#bD)" d="M29.384 21.772H2.917l-.294-1.79h27.055z" transform="translate(82 34)"/>
            <path fill="url(#bE)" d="M29.797 19.575H2.425l-.013-.14a81.169 81.169 0 0 0-1.256-8.453.993.993 0 0 1-1.007-.466.903.903 0 0 1 .109-1.065A1.008 1.008 0 0 1 1.34 9.18a.939.939 0 0 1 .442 1.469 42.24 42.24 0 0 0 2.299 2.71 37.954 37.954 0 0 0 2.999 2.913A117.33 117.33 0 0 0 8.34 6.426a.928.928 0 0 1-.529-.853.815.815 0 0 1 .4-.791.898.898 0 0 1 .92 0 .815.815 0 0 1 .4.791.947.947 0 0 1-.334.731 52.098 52.098 0 0 0 3.774 6.514c.529-1.8 1.018-3.639 1.473-5.47.42-1.696 1.034-4.513 1.267-5.593a.929.929 0 0 1-.466-.822.815.815 0 0 1 .4-.792.898.898 0 0 1 .92 0 .815.815 0 0 1 .4.792.929.929 0 0 1-.466.822c.233 1.08.846 3.897 1.267 5.594.454 1.833.949 3.671 1.473 5.47a49.816 49.816 0 0 0 1.983-3.152 59.079 59.079 0 0 0 1.851-3.472.964.964 0 0 1-.222-.622.815.815 0 0 1 .4-.791.898.898 0 0 1 .92 0 .815.815 0 0 1 .4.791.913.913 0 0 1-.683.906c.111 1.31.246 2.622.4 3.909.235 1.965.528 3.945.856 5.884a38.41 38.41 0 0 0 3-2.913c.793-.852 1.56-1.77 2.3-2.713a.982.982 0 0 1-.201-.6c.055-.44.465-.76.927-.725.463.035.814.413.796.857-.018.443-.4.794-.864.794h-.031a80.33 80.33 0 0 0-1.259 8.464l-.016.139zm-27.078-.306h26.784c.146-1.517.336-3.035.564-4.506.206-1.333.447-2.676.716-3.993l.006-.06-.021.027a46.406 46.406 0 0 1-2.396 2.832 38.505 38.505 0 0 1-3.243 3.118l-.217.187-.047-.275a117.606 117.606 0 0 1-1.322-10.241l-.014-.165h.172a.67.67 0 0 0 .686-.304.608.608 0 0 0-.064-.72.678.678 0 0 0-.73-.188.632.632 0 0 0-.434.592.65.65 0 0 0 .204.483l.082.076-.048.099a53.719 53.719 0 0 1-1.899 3.586 49.08 49.08 0 0 1-2.19 3.451l-.193.278-.092-.32c-.56-1.907-1.09-3.86-1.574-5.817-.436-1.77-1.081-4.741-1.293-5.72l-.03-.129.13-.045a.618.618 0 0 0 .384-.592.514.514 0 0 0-.24-.527.569.569 0 0 0-.6 0 .514.514 0 0 0-.239.527.618.618 0 0 0 .383.592l.13.045-.029.13c-.212.978-.857 3.954-1.293 5.72-.484 1.944-1.013 3.899-1.574 5.815l-.092.321-.193-.278a49.08 49.08 0 0 1-2.19-3.451 52.241 52.241 0 0 1-1.851-3.495l-.061-.124.124-.073a.63.63 0 0 0 .296-.552.514.514 0 0 0-.24-.526.569.569 0 0 0-.6 0 .514.514 0 0 0-.239.526.605.605 0 0 0 .418.602l.127.036v.123a142.741 142.741 0 0 1-.418 4.087 113.35 113.35 0 0 1-.907 6.178l-.048.275-.216-.187a38.505 38.505 0 0 1-3.243-3.118 39.63 39.63 0 0 1-2.38-2.827l-.032-.033.016.076c.265 1.318.513 2.658.717 3.985.217 1.477.407 2.992.553 4.499zM1.132 9.437a.638.638 0 0 0-.541.62c0 .304.228.565.54.62a.48.48 0 0 0 .12-.016l.127-.033.098-.093a.662.662 0 0 0 .195-.478.583.583 0 0 0-.55-.612l.01-.008zm29.739 1.181l.121.033a.48.48 0 0 0 .12.015.67.67 0 0 0 .693-.292.608.608 0 0 0-.054-.723.678.678 0 0 0-.73-.196.632.632 0 0 0-.439.592.655.655 0 0 0 .199.48l.09.091z" transform="translate(82 34)"/>
            <path fill="url(#bF)" d="M29.522 21.924H2.78l-.344-2.096h27.427l-.341 2.096zm-26.47-.306h26.195l.243-1.484H2.81l.243 1.484z" transform="translate(82 34)"/>
        </g>
        <g fill-rule="nonzero" opacity=".8">
            <path fill="url(#bG)" d="M11.663 3.478a.276.276 0 0 0-.263.29c0 .082.033.162.093.221-.267.344-.564.7-.892 1.059-.38.41-.784.8-1.211 1.164a43.573 43.573 0 0 1-.494-3.836.31.31 0 0 0 .312-.151.283.283 0 0 0-.04-.333.316.316 0 0 0-.341-.079.293.293 0 0 0-.195.279c0 .084.036.164.1.223-.208.428-.443.879-.71 1.34-.279.48-.554.91-.819 1.29a60.248 60.248 0 0 1-.59-2.174A89.722 89.722 0 0 1 6.13.628.284.284 0 0 0 6.31.352a.249.249 0 0 0-.118-.25.275.275 0 0 0-.287 0 .249.249 0 0 0-.118.25c-.006.12.067.23.182.276a88.688 88.688 0 0 1-.485 2.143c-.19.767-.388 1.492-.589 2.174-.265-.38-.54-.81-.818-1.29-.26-.449-.49-.888-.694-1.307a.294.294 0 0 0 .14-.256.249.249 0 0 0-.118-.25.275.275 0 0 0-.288 0 .249.249 0 0 0-.118.25.285.285 0 0 0 .198.284 43.721 43.721 0 0 1-.495 3.845 14.193 14.193 0 0 1-1.21-1.165A15.33 15.33 0 0 1 .6 4a.3.3 0 0 0 .092-.22.263.263 0 0 0-.287-.215.257.257 0 0 0-.24.264.26.26 0 0 0 .325.232c.1.465.186.962.268 1.491.099.615.163 1.196.216 1.74h10.144c.053-.544.122-1.125.217-1.74.08-.53.172-1.029.268-1.494.02.005.04.008.06.008a.297.297 0 0 0 .26-.29.297.297 0 0 0-.26-.29v-.008z" transform="matrix(1 0 0 -1 92 168.25)"/>
            <path fill="url(#bH)" d="M11.02 8.165H1.093l-.11-.672h10.145z" transform="matrix(1 0 0 -1 92 168.25)"/>
            <path fill="url(#bI)" d="M11.174 7.34H.909l-.005-.052a30.438 30.438 0 0 0-.47-3.17.373.373 0 0 1-.378-.175.339.339 0 0 1 .04-.399.378.378 0 0 1 .406-.101.352.352 0 0 1 .166.55c.278.357.568.698.862 1.017.354.383.73.748 1.125 1.092a43.999 43.999 0 0 0 .473-3.692.348.348 0 0 1-.198-.32.306.306 0 0 1 .15-.297.337.337 0 0 1 .344 0 .306.306 0 0 1 .15.297.355.355 0 0 1-.125.274 19.537 19.537 0 0 0 1.415 2.443c.199-.675.382-1.365.553-2.051.158-.637.388-1.693.475-2.098A.348.348 0 0 1 5.717.35a.306.306 0 0 1 .15-.297.337.337 0 0 1 .345 0 .306.306 0 0 1 .15.297.348.348 0 0 1-.175.308c.088.405.318 1.461.475 2.098.171.687.357 1.377.553 2.05.259-.378.509-.774.744-1.18.235-.408.474-.854.694-1.303a.361.361 0 0 1-.083-.233.306.306 0 0 1 .15-.297.337.337 0 0 1 .344 0 .306.306 0 0 1 .15.297.342.342 0 0 1-.256.34 43.472 43.472 0 0 0 .471 3.672c.396-.344.771-.709 1.125-1.092.298-.32.585-.664.863-1.018a.368.368 0 0 1-.076-.224.32.32 0 0 1 .348-.273.315.315 0 0 1 .299.322.318.318 0 0 1-.324.298h-.012a30.124 30.124 0 0 0-.472 3.174l-.006.052zM1.02 7.227h10.044a29.637 29.637 0 0 1 .48-3.187l.002-.023-.008.01c-.289.373-.595.73-.899 1.062a14.44 14.44 0 0 1-1.216 1.17l-.08.07-.019-.104a44.102 44.102 0 0 1-.496-3.84l-.005-.062h.065a.251.251 0 0 0 .257-.114.228.228 0 0 0-.024-.27.254.254 0 0 0-.274-.07.237.237 0 0 0-.162.222.244.244 0 0 0 .076.181l.03.029-.017.037c-.223.462-.463.915-.712 1.344-.258.447-.535.882-.821 1.295l-.073.104-.034-.12a52.021 52.021 0 0 1-.59-2.182A95.076 95.076 0 0 1 6.058.633L6.048.585l.048-.017A.232.232 0 0 0 6.24.346.193.193 0 0 0 6.15.15a.213.213 0 0 0-.225 0 .193.193 0 0 0-.09.197.232.232 0 0 0 .144.222l.049.017-.011.048c-.08.367-.321 1.484-.485 2.145-.182.73-.38 1.463-.59 2.181l-.035.12-.072-.103A19.59 19.59 0 0 1 3.32 2.37l-.023-.047.046-.027a.236.236 0 0 0 .111-.207.193.193 0 0 0-.09-.197.213.213 0 0 0-.225 0 .193.193 0 0 0-.09.197c-.005.1.059.192.157.226l.048.013v.046c-.044.513-.1 1.03-.157 1.533a42.506 42.506 0 0 1-.34 2.316l-.018.104-.081-.07a14.44 14.44 0 0 1-2.109-2.23l-.011-.012.005.028c.1.494.193.997.27 1.495.08.554.152 1.122.207 1.687zM.424 3.539a.24.24 0 0 0-.202.232.24.24 0 0 0 .202.233.18.18 0 0 0 .045-.006l.048-.012.036-.035a.248.248 0 0 0 .074-.18.219.219 0 0 0-.207-.23l.004-.002zm11.153.443l.045.012a.18.18 0 0 0 .045.006.251.251 0 0 0 .26-.11.228.228 0 0 0-.02-.271.254.254 0 0 0-.274-.073.237.237 0 0 0-.165.222.245.245 0 0 0 .075.18l.034.034z" transform="matrix(1 0 0 -1 92 168.25)"/>
            <path fill="url(#bJ)" d="M11.07 8.435H1.043l-.129-1H11.2l-.128 1zM1.145 8.29h9.824l.09-.708H1.054l.091.708z" transform="matrix(1 0 0 -1 92 168.25)"/>
        </g>
        <path fill="#000" d="M0 0l98.98 40L196 0zM0 296l98.98-40L196 296z" opacity=".3"/>
    </g>
</svg>
