<svg xmlns="http://www.w3.org/2000/svg" xmlns:xlink="http://www.w3.org/1999/xlink" width="136" height="296" viewBox="0 0 136 296">
    <defs>
        <radialGradient id="b" cx="0%" cy="0%" r="239.521%" fx="0%" fy="0%" gradientTransform="matrix(.4175 .4175 -.90868 .19182 0 0)">
            <stop offset="0%"/>
            <stop offset="50.113%" stop-color="#252525"/>
            <stop offset="100%"/>
        </radialGradient>
        <rect id="a" width="136" height="296" rx="3"/>
        <linearGradient id="d" x1="66.129%" x2="37.716%" y1="-5.781%" y2="92.475%">
            <stop offset="0%" stop-color="#9E6C5D"/>
            <stop offset="16%" stop-color="#DCB2A5"/>
            <stop offset="19%" stop-color="#DCC6AB"/>
            <stop offset="24%" stop-color="#DCC6AB"/>
            <stop offset="30%" stop-color="#854F3E"/>
            <stop offset="59%" stop-color="#8D5544"/>
            <stop offset="69%" stop-color="#DCC6AB"/>
            <stop offset="71%" stop-color="#DCB2A5"/>
            <stop offset="73%" stop-color="#DCB2A5"/>
            <stop offset="100%" stop-color="#9E6C5D"/>
        </linearGradient>
        <linearGradient id="e" x1="97.569%" x2="-12.175%" y1="-10.64%" y2="129.257%">
            <stop offset="0%" stop-color="#DA9783"/>
            <stop offset="18.225%" stop-color="#8D5544"/>
            <stop offset="42%" stop-color="#DA9783"/>
            <stop offset="71%" stop-color="#8D5544"/>
            <stop offset="100%" stop-color="#8A8A8A"/>
        </linearGradient>
        <linearGradient id="f" x1="-7.585%" x2="98.549%" y1="46.921%" y2="52.516%">
            <stop offset="0%" stop-color="#EDB5A1"/>
            <stop offset="29%" stop-color="#C6907D"/>
            <stop offset="46%" stop-color="#FFF1BB"/>
            <stop offset="100%" stop-color="#EDB5A1"/>
        </linearGradient>
        <linearGradient id="j" x1="149.47%" x2="13.85%" y1="-37.305%" y2="99.159%">
            <stop offset="0%" stop-color="#FFD6C8"/>
            <stop offset="29%" stop-color="#C6907D"/>
            <stop offset="46%" stop-color="#C6907D"/>
            <stop offset="100%" stop-color="#D5A898"/>
        </linearGradient>
        <radialGradient id="i" cy="0%" r="107.463%" fx="50%" fy="0%" gradientTransform="matrix(0 .93056 -.94915 0 .5 -.465)">
            <stop offset="0%" stop-color="#CDA191"/>
            <stop offset="75.913%" stop-color="#FFD6C8"/>
            <stop offset="100%" stop-color="#7D4E29"/>
        </radialGradient>
        <path id="h" d="M49.42 23.723l.373.009a9.409 9.409 0 0 1 4.253 1.224l.041.018.266.156c2.449 1.5 4.075 4.036 4.38 6.858l.176 1.607 1.5-.657.362-.149a9.48 9.48 0 0 1 3.443-.642l.352.007a9.514 9.514 0 0 1 4.33 1.227l.121.073.262.153c2.758 1.68 4.444 4.65 4.444 7.833l-.006.308c-.097 2.862-1.557 5.542-3.947 7.209l-1.38.959 1.38.958.252.183c2.324 1.742 3.7 4.464 3.7 7.334v.169l-.005.306c-.108 3.162-1.878 6.078-4.677 7.667l-.13.077-.31.168a9.557 9.557 0 0 1-4.386 1.07l-.399-.008a9.464 9.464 0 0 1-3.42-.787L58.91 66.4l-.19 1.59-.041.3a9.257 9.257 0 0 1-4.405 6.512l-.232.137-.318.182a9.474 9.474 0 0 1-4.541 1.156l-.352-.006a9.485 9.485 0 0 1-4.335-1.227l-.06-.031-.264-.156c-2.428-1.491-4.054-4.028-4.359-6.845l-.172-1.607-1.5.653-.363.148a9.531 9.531 0 0 1-3.446.642l-.352-.007a9.517 9.517 0 0 1-4.335-1.222l-.135-.082-.268-.158c-2.74-1.677-4.423-4.643-4.423-7.82l.005-.307c.098-2.867 1.562-5.542 3.952-7.213l1.375-.96-1.375-.958-.252-.182c-2.324-1.738-3.705-4.46-3.705-7.334v-.165l.005-.307c.108-3.161 1.878-6.082 4.677-7.67l.149-.082.306-.167a9.5 9.5 0 0 1 4.371-1.067l.399.009a9.43 9.43 0 0 1 3.424.79l1.482.65.195-1.59.041-.3c.414-2.688 2.044-5.104 4.405-6.513l.237-.142.313-.177a9.543 9.543 0 0 1 4.492-1.151h.105zm1.765 5.611a4.14 4.14 0 0 0-3.94.16l-.237.142-.187.12c-1.099.745-1.783 1.995-1.783 3.314v4.21l-4.859 2.758-3.804-2.164-.213-.112a4.18 4.18 0 0 0-3.875.112l-.14.087-.195.118A4.014 4.014 0 0 0 30.1 41.44v.165l.007.225a4.012 4.012 0 0 0 2.042 3.25l3.892 2.21.033 5.502-3.967 2.307-.192.119A4.02 4.02 0 0 0 30.1 58.56l.007.224a4.019 4.019 0 0 0 2.042 3.25l.144.088.212.112a4.172 4.172 0 0 0 3.87-.112l3.805-2.165 4.86 2.763v4.32l.006.224a4.03 4.03 0 0 0 2.042 3.255l.05.032.219.115a4.16 4.16 0 0 0 3.944-.16l.237-.142.187-.119a4.024 4.024 0 0 0 1.778-3.315v-4.21l4.859-2.763 3.804 2.165.214.112c1.228.598 2.69.56 3.879-.112l.14-.083.194-.118a4.017 4.017 0 0 0 1.849-3.361v-.17l-.007-.223a4.013 4.013 0 0 0-2.037-3.251l-3.897-2.21-.033-5.503 3.972-2.306.191-.119a4.021 4.021 0 0 0 1.81-3.338l-.006-.225a4.02 4.02 0 0 0-2.037-3.254l-.14-.087-.212-.112a4.19 4.19 0 0 0-3.88.112l-3.804 2.164-4.86-2.758v-4.32l-.006-.225a4.016 4.016 0 0 0-2.042-3.259l-.05-.027zm-11.468 17.11l7.906 4.482v8.977l-7.906-4.489v-8.97zm19.106 0v8.97l-7.906 4.489v-8.977l7.906-4.482zm-9.553-7.293l7.906 4.489-7.906 4.482-7.906-4.482 7.906-4.489z"/>
        <filter id="g" width="112.3%" height="111.4%" x="-6.1%" y="-3.8%" filterUnits="objectBoundingBox">
            <feMorphology in="SourceAlpha" operator="dilate" radius="1" result="shadowSpreadOuter1"/>
            <feOffset dy="1" in="shadowSpreadOuter1" result="shadowOffsetOuter1"/>
            <feGaussianBlur in="shadowOffsetOuter1" result="shadowBlurOuter1" stdDeviation=".5"/>
            <feComposite in="shadowBlurOuter1" in2="SourceAlpha" operator="out" result="shadowBlurOuter1"/>
            <feColorMatrix in="shadowBlurOuter1" values="0 0 0 0 0 0 0 0 0 0 0 0 0 0 0 0 0 0 0.16 0"/>
        </filter>
    </defs>
    <g fill="none" fill-rule="evenodd">
        <g>
            <mask id="c" fill="#fff">
                <use xlink:href="#a"/>
            </mask>
            <use fill="url(#b)" xlink:href="#a"/>
            <g mask="url(#c)" opacity=".08">
                <path fill="#ED9D81" d="M67.75 130.484L.003 65.366 67.75.257l67.75 65.114z"/>
                <path fill="#AC644E" d="M135.97 192.878l-68.64 65.08v-130.16l68.64-65.085z"/>
                <path fill="#ED9D81" d="M68.309 257.962l-68.31-65.085V62.717l68.31 65.082z"/>
            </g>
        </g>
        <g fill-rule="nonzero">
            <path fill="url(#d)" d="M100 50c0 27.413-22.386 49.635-50 49.635S0 77.413 0 50C0 22.587 22.386.365 50 .365S100 22.587 100 50z" transform="translate(18 59)"/>
            <path fill="url(#e)" d="M50 94.526C25.208 94.526 5.11 74.59 5.11 50 5.11 25.41 25.207 5.474 50 5.474S94.89 25.41 94.89 50C94.865 74.58 74.782 94.499 50 94.526z" transform="translate(18 59)"/>
            <path fill="url(#f)" d="M93.125 50.463C92.713 73.476 73.98 92.025 50.772 92.4h-1.471c-15.384-.27-29.453-8.659-36.908-22.005a42.394 42.394 0 0 1 .765-42.697C21.086 14.624 35.447 6.736 50.831 7.007c.526 0 .974 0 1.47.058C75.48 8.259 93.535 27.452 93.126 50.463zM7.776 48.955c-.385 23.148 18.192 42.239 41.535 42.683h1.451c22.761-.416 41.106-18.622 41.508-41.192.401-22.57-17.285-41.406-40.017-42.618-.458 0-.926-.048-1.432-.058C27.477 7.388 8.224 25.81 7.776 48.955z" opacity=".4" transform="translate(18 59)"/>
            <g transform="translate(18 59)">
                <use fill="#000" filter="url(#g)" xlink:href="#h"/>
                <path fill="url(#j)" fill-rule="evenodd" stroke="url(#i)" d="M59.332 32.864l.887-.389.372-.152a9.99 9.99 0 0 1 3.632-.675l.361.006c1.602.06 3.172.505 4.571 1.299l.115.07.269.157c2.907 1.771 4.684 4.902 4.684 8.269l-.006.316c-.103 3.026-1.647 5.849-4.162 7.602l-.79.549.798.553.26.188c2.45 1.838 3.9 4.708 3.9 7.734v.177l-.006.315c-.114 3.342-1.985 6.414-4.921 8.08l-.148.087-.317.172a10.066 10.066 0 0 1-4.627 1.126l-.409-.009a9.966 9.966 0 0 1-3.6-.828l-.87-.382-.111.928-.042.308a9.758 9.758 0 0 1-4.645 6.868l-.238.14-.326.187a9.982 9.982 0 0 1-4.79 1.217l-.362-.006a9.965 9.965 0 0 1-4.548-1.284l-.083-.044-.27-.16c-2.566-1.575-4.274-4.252-4.595-7.218l-.1-.93-.886.385-.372.153c-1.16.447-2.379.675-3.635.675l-.362-.007a10.029 10.029 0 0 1-4.576-1.295l-.129-.078-.275-.162c-2.891-1.77-4.662-4.898-4.662-8.255l.005-.316c.104-3.026 1.648-5.846 4.166-7.606l.787-.55-.794-.553-.259-.187c-2.453-1.835-3.905-4.706-3.905-7.734v-.173l.005-.316c.114-3.342 1.986-6.418 4.935-8.09l.152-.085.315-.17c1.417-.736 3-1.124 4.611-1.123l.409.008c1.25.05 2.46.33 3.605.833l.867.379.114-.93.042-.308c.436-2.838 2.156-5.382 4.642-6.866l.247-.147.322-.183a10.046 10.046 0 0 1 4.73-1.211h.118l.383.01c1.58.07 3.118.51 4.43 1.264l.096.046.273.16c2.584 1.583 4.294 4.258 4.615 7.23l.103.931zm-8.374-3.084a3.64 3.64 0 0 0-3.457.144l-.224.133-.176.112c-.969.658-1.563 1.757-1.563 2.901v4.501l-5.359 3.042-.247-.14-3.79-2.157-.2-.105a3.672 3.672 0 0 0-3.39.087l-.146.09-.183.111a3.514 3.514 0 0 0-1.624 2.941v.15l.006.21a3.513 3.513 0 0 0 1.79 2.845l4.144 2.353.036 6.08-.25.146-3.955 2.299-.18.112c-.992.656-1.591 1.757-1.591 2.91l.006.21a3.526 3.526 0 0 0 1.8 2.852l.12.073.2.105a3.671 3.671 0 0 0 3.403-.098l4.051-2.305 5.36 3.047v.29l-.001 4.306.006.21c.068 1.177.746 2.259 1.807 2.86l.02.014.205.108a3.66 3.66 0 0 0 3.468-.14l.225-.136.176-.11a3.524 3.524 0 0 0 1.557-2.901v-4.501l5.359-3.047.247.14 3.79 2.157.2.105a3.682 3.682 0 0 0 3.405-.093l.135-.08.184-.11a3.517 3.517 0 0 0 1.619-2.941v-.155l-.006-.21a3.513 3.513 0 0 0-1.785-2.844l-4.149-2.353-.035-6.082.25-.145 3.959-2.299.18-.111c.986-.652 1.586-1.756 1.586-2.906l-.006-.211a3.53 3.53 0 0 0-1.803-2.86l-.107-.068-.2-.105a3.689 3.689 0 0 0-3.412.097l-4.052 2.305-5.36-3.042v-.29l.001-4.306-.006-.211a3.511 3.511 0 0 0-1.778-2.847l-.05-.026-.21-.111zM39.217 45.586l8.906 5.049V60.76l-8.906-5.056v-10.12zm20.106 0v10.12l-8.906 5.055V50.635l8.906-5.05zm-10.053-7.01l8.92 5.064-8.92 5.056-8.92-5.056 8.92-5.064z"/>
            </g>
        </g>
        <path fill="#000" d="M0 0l68.68 40L136 0zM0 296l68.68-40L136 296z" opacity=".3"/>
    </g>
</svg>
